#define desk_toggled_pressed_width 9
#define desk_toggled_pressed_height 9
static char desk_toggled_pressed_bits[] = {
  0xFF, 0x01, 0xFF, 0x01, 0x83, 0x01, 0x83, 0x01, 0x83, 0x01, 0x83, 0x01, 
  0x83, 0x01, 0xFF, 0x01, 0xFF, 0x01, };
