#define max_toggled_pressed_width 9
#define max_toggled_pressed_height 9
static char max_toggled_pressed_bits[] = {
  0xFF, 0x01, 0x07, 0x01, 0x77, 0x01, 0x41, 0x01, 0x5D, 0x01, 0x1D, 0x01, 
  0xDD, 0x01, 0xC1, 0x01, 0xFF, 0x01, };
