#define shade_hover_width 9
#define shade_hover_height 9
static char shade_hover_bits[] = {
  0xFF, 0x01, 0xFF, 0x01, 0xEF, 0x01, 0xD7, 0x01, 0xBB, 0x01, 0xBB, 0x01, 
  0x7D, 0x01, 0xFF, 0x01, 0xFF, 0x01, };
