<?xml version="1.0" encoding="UTF-8" standalone="no"?>
<!-- Created with Inkscape (http://www.inkscape.org/) -->

<svg
   xmlns:dc="http://purl.org/dc/elements/1.1/"
   xmlns:cc="http://creativecommons.org/ns#"
   xmlns:rdf="http://www.w3.org/1999/02/22-rdf-syntax-ns#"
   xmlns:svg="http://www.w3.org/2000/svg"
   xmlns="http://www.w3.org/2000/svg"
   xmlns:sodipodi="http://sodipodi.sourceforge.net/DTD/sodipodi-0.dtd"
   xmlns:inkscape="http://www.inkscape.org/namespaces/inkscape"
   width="300"
   height="100"
   viewBox="0 0 300 100"
   id="svg2"
   version="1.1"
   inkscape:version="0.91 r13725"
   sodipodi:docname="xfgaps-button.svg"
   inkscape:export-filename="/home/epsi/Dropbox/2018 - Inkscape/themes/xfgaps/xfgaps.png"
   inkscape:export-xdpi="900"
   inkscape:export-ydpi="900">
  <title
     id="title4391">xfgaps</title>
  <defs
     id="defs4" />
  <sodipodi:namedview
     id="base"
     pagecolor="#ffffff"
     bordercolor="#666666"
     borderopacity="1.0"
     inkscape:pageopacity="0.0"
     inkscape:pageshadow="2"
     inkscape:zoom="7.48125"
     inkscape:cx="37.250591"
     inkscape:cy="48.46533"
     inkscape:document-units="px"
     inkscape:current-layer="layer4"
     showgrid="false"
     units="px"
     inkscape:window-width="1900"
     inkscape:window-height="981"
     inkscape:window-x="10"
     inkscape:window-y="40"
     inkscape:window-maximized="1"
     showguides="true" />
  <metadata
     id="metadata7">
    <rdf:RDF>
      <cc:Work
         rdf:about="">
        <dc:format>image/svg+xml</dc:format>
        <dc:type
           rdf:resource="http://purl.org/dc/dcmitype/StillImage" />
        <dc:title>xfgaps</dc:title>
        <cc:license
           rdf:resource="http://creativecommons.org/publicdomain/zero/1.0/" />
        <dc:creator>
          <cc:Agent>
            <dc:title>epsi sayidina</dc:title>
          </cc:Agent>
        </dc:creator>
        <dc:description>xfwm4 theme</dc:description>
      </cc:Work>
      <cc:License
         rdf:about="http://creativecommons.org/publicdomain/zero/1.0/">
        <cc:permits
           rdf:resource="http://creativecommons.org/ns#Reproduction" />
        <cc:permits
           rdf:resource="http://creativecommons.org/ns#Distribution" />
        <cc:permits
           rdf:resource="http://creativecommons.org/ns#DerivativeWorks" />
      </cc:License>
    </rdf:RDF>
  </metadata>
  <g
     inkscape:label="Background"
     inkscape:groupmode="layer"
     id="layer1"
     transform="translate(0,-952.3622)"
     style="display:none"
     sodipodi:insensitive="true">
    <rect
       style="opacity:1;fill:#e0e0e0;fill-opacity:1;stroke:none;stroke-width:0.37795275;stroke-miterlimit:4;stroke-dasharray:none;stroke-opacity:1"
       id="rect4216"
       width="300"
       height="100"
       x="-300"
       y="952.36212"
       transform="scale(-1,1)" />
    <rect
       transform="scale(-1,1)"
       y="962.36218"
       x="-80"
       height="40"
       width="40"
       id="rect4420"
       style="opacity:1;fill:#e0e0e0;fill-opacity:1;stroke:none;stroke-width:0.37795275;stroke-miterlimit:4;stroke-dasharray:none;stroke-opacity:1" />
    <rect
       style="opacity:1;fill:#e0e0e0;fill-opacity:1;stroke:none;stroke-width:0.37795275;stroke-miterlimit:4;stroke-dasharray:none;stroke-opacity:1"
       id="rect4426"
       width="40"
       height="40"
       x="-80"
       y="1012.3622"
       transform="scale(-1,1)" />
  </g>
  <g
     inkscape:groupmode="layer"
     id="layer2"
     inkscape:label="Frame"
     transform="translate(0,60)"
     style="display:inline"
     sodipodi:insensitive="true">
    <rect
       inkscape:export-ydpi="90"
       inkscape:export-xdpi="90"
       inkscape:export-filename="/home/epsi/Dropbox/2018 - Inkscape/themes/xfgaps/xfwm4/bottom-left-inactive.png"
       y="-20"
       x="0"
       height="10"
       width="10"
       id="rect4326"
       style="opacity:1;fill:#2196f3;fill-opacity:1;stroke:none;stroke-width:0.37795275;stroke-miterlimit:4;stroke-dasharray:none;stroke-opacity:1" />
    <rect
       inkscape:export-ydpi="90"
       inkscape:export-xdpi="90"
       inkscape:export-filename="/home/epsi/Dropbox/2018 - Inkscape/themes/xfgaps/xfwm4/bottom-inactive.png"
       style="opacity:1;fill:#1976d2;fill-opacity:1;stroke:none;stroke-width:0.37795275;stroke-miterlimit:4;stroke-dasharray:none;stroke-opacity:1"
       id="rect4328"
       width="20"
       height="10"
       x="10"
       y="-20" />
    <rect
       inkscape:export-ydpi="90"
       inkscape:export-xdpi="90"
       inkscape:export-filename="/home/epsi/Dropbox/2018 - Inkscape/themes/xfgaps/xfwm4/bottom-right-inactive.png"
       style="opacity:1;fill:#2196f3;fill-opacity:1;stroke:none;stroke-width:0.37795275;stroke-miterlimit:4;stroke-dasharray:none;stroke-opacity:1"
       id="rect4330"
       width="10"
       height="10"
       x="30"
       y="-20" />
    <rect
       inkscape:export-ydpi="90"
       inkscape:export-xdpi="90"
       inkscape:export-filename="/home/epsi/Dropbox/2018 - Inkscape/themes/xfgaps/xfwm4/left-inactive.png"
       style="opacity:1;fill:#1976d2;fill-opacity:1;stroke:none;stroke-width:0.37795275;stroke-miterlimit:4;stroke-dasharray:none;stroke-opacity:1"
       id="rect4332"
       width="10"
       height="20"
       x="0"
       y="-40" />
    <rect
       style="opacity:1;fill:#2196f3;fill-opacity:1;stroke:none;stroke-width:0.37795275;stroke-miterlimit:4;stroke-dasharray:none;stroke-opacity:1"
       id="rect4334"
       width="10"
       height="14"
       x="0"
       y="-54"
       inkscape:export-filename="/home/epsi/Dropbox/2018 - Inkscape/themes/xfgaps/xfwm4/top-left-inactive.png"
       inkscape:export-xdpi="90"
       inkscape:export-ydpi="90" />
    <rect
       inkscape:export-ydpi="90"
       inkscape:export-xdpi="90"
       inkscape:export-filename="/home/epsi/Dropbox/2018 - Inkscape/themes/xfgaps/xfwm4/right-inactive.png"
       y="-40"
       x="30"
       height="20"
       width="10"
       id="rect4338"
       style="opacity:1;fill:#1976d2;fill-opacity:1;stroke:none;stroke-width:0.37795275;stroke-miterlimit:4;stroke-dasharray:none;stroke-opacity:1" />
    <rect
       inkscape:export-ydpi="90"
       inkscape:export-xdpi="90"
       inkscape:export-filename="/home/epsi/Dropbox/2018 - Inkscape/themes/xfgaps/xfwm4/title-1-inactive.png"
       y="-54"
       x="10"
       height="14"
       width="10"
       id="rect4340"
       style="opacity:1;fill:#1976d2;fill-opacity:1;stroke:none;stroke-width:0.37795275;stroke-miterlimit:4;stroke-dasharray:none;stroke-opacity:1" />
    <rect
       inkscape:export-ydpi="90"
       inkscape:export-xdpi="90"
       inkscape:export-filename="/home/epsi/Dropbox/2018 - Inkscape/themes/xfgaps/xfwm4/top-right-inactive.png"
       y="-54"
       x="30"
       height="14"
       width="10"
       id="rect4342"
       style="opacity:1;fill:#2196f3;fill-opacity:1;stroke:none;stroke-width:0.37795275;stroke-miterlimit:4;stroke-dasharray:none;stroke-opacity:1" />
    <rect
       style="opacity:1;fill:#64b5f6;fill-opacity:1;stroke:none;stroke-width:0.37795275;stroke-miterlimit:4;stroke-dasharray:none;stroke-opacity:1"
       id="rect4344"
       width="10"
       height="14"
       x="20"
       y="-54"
       inkscape:export-filename="/home/epsi/Dropbox/2018 - Inkscape/themes/xfgaps/xfwm4/title-2-inactive.png"
       inkscape:export-xdpi="90"
       inkscape:export-ydpi="90" />
    <rect
       inkscape:export-ydpi="90"
       inkscape:export-xdpi="90"
       inkscape:export-filename="/home/epsi/Dropbox/2018 - Inkscape/themes/xfgaps/xfwm4/title-3-inactive.png"
       y="-54"
       x="44"
       height="14"
       width="10"
       id="rect4346"
       style="opacity:1;fill:#1976d2;fill-opacity:1;stroke:none;stroke-width:0.37795275;stroke-miterlimit:4;stroke-dasharray:none;stroke-opacity:1" />
    <rect
       style="opacity:1;fill:#64b5f6;fill-opacity:1;stroke:none;stroke-width:0.37795275;stroke-miterlimit:4;stroke-dasharray:none;stroke-opacity:1"
       id="rect4348"
       width="10"
       height="14"
       x="54"
       y="-54"
       inkscape:export-filename="/home/epsi/Dropbox/2018 - Inkscape/themes/xfgaps/xfwm4/title-4-inactive.png"
       inkscape:export-xdpi="90"
       inkscape:export-ydpi="90" />
    <rect
       inkscape:export-ydpi="90"
       inkscape:export-xdpi="90"
       inkscape:export-filename="/home/epsi/Dropbox/2018 - Inkscape/themes/xfgaps/xfwm4/title-5-inactive.png"
       y="-54"
       x="64"
       height="14"
       width="10"
       id="rect4350"
       style="opacity:1;fill:#1976d2;fill-opacity:1;stroke:none;stroke-width:0.37795275;stroke-miterlimit:4;stroke-dasharray:none;stroke-opacity:1" />
    <rect
       y="-4"
       x="80"
       height="14"
       width="20"
       id="rect4173-3"
       style="display:inline;opacity:1;fill:#1976d2;fill-opacity:1;stroke:none;stroke-width:0.68797964;stroke-miterlimit:4;stroke-dasharray:none;stroke-opacity:1"
       inkscape:export-filename="/home/epsi/Dropbox/2018 - Inkscape/themes/xfgaps/xfwm4/shade-active.png"
       inkscape:export-xdpi="90"
       inkscape:export-ydpi="90" />
    <rect
       style="display:inline;opacity:1;fill:#64b5f6;fill-opacity:1;stroke:none;stroke-width:0.68797964;stroke-miterlimit:4;stroke-dasharray:none;stroke-opacity:1"
       id="rect4176"
       width="20"
       height="14"
       x="80"
       y="-46"
       inkscape:export-filename="/home/epsi/Dropbox/2018 - Inkscape/themes/xfgaps/xfwm4/shade-pressed.png"
       inkscape:export-xdpi="90"
       inkscape:export-ydpi="90" />
    <rect
       style="display:inline;opacity:1;fill:#64b5f6;fill-opacity:1;stroke:none;stroke-width:0.68797964;stroke-miterlimit:4;stroke-dasharray:none;stroke-opacity:1"
       id="rect4231"
       width="20"
       height="14"
       x="100"
       y="-4"
       inkscape:export-filename="/home/epsi/Dropbox/2018 - Inkscape/themes/xfgaps/xfwm4/shade-toggled-active.png"
       inkscape:export-xdpi="90"
       inkscape:export-ydpi="90" />
    <rect
       y="-46"
       x="100"
       height="14"
       width="20"
       id="rect4233-6"
       style="display:inline;opacity:1;fill:#1976d2;fill-opacity:1;stroke:none;stroke-width:0.68797964;stroke-miterlimit:4;stroke-dasharray:none;stroke-opacity:1"
       inkscape:export-filename="/home/epsi/Dropbox/2018 - Inkscape/themes/xfgaps/xfwm4/shade-toggled-pressed.png"
       inkscape:export-xdpi="90"
       inkscape:export-ydpi="90" />
    <rect
       y="-4"
       x="120"
       height="14"
       width="20"
       id="rect4239"
       style="display:inline;opacity:1;fill:#1976d2;fill-opacity:1;stroke:none;stroke-width:0.68797964;stroke-miterlimit:4;stroke-dasharray:none;stroke-opacity:1"
       inkscape:export-filename="/home/epsi/Dropbox/2018 - Inkscape/themes/xfgaps/xfwm4/hide-active.png"
       inkscape:export-xdpi="90"
       inkscape:export-ydpi="90" />
    <rect
       style="display:inline;opacity:1;fill:#64b5f6;fill-opacity:1;stroke:none;stroke-width:0.68797964;stroke-miterlimit:4;stroke-dasharray:none;stroke-opacity:1"
       id="rect4241"
       width="20"
       height="14"
       x="120"
       y="-46"
       inkscape:export-filename="/home/epsi/Dropbox/2018 - Inkscape/themes/xfgaps/xfwm4/hide-pressed.png"
       inkscape:export-xdpi="90"
       inkscape:export-ydpi="90" />
    <rect
       style="display:inline;opacity:1;fill:#64b5f6;fill-opacity:1;stroke:none;stroke-width:0.68797964;stroke-miterlimit:4;stroke-dasharray:none;stroke-opacity:1"
       id="rect4247"
       width="20"
       height="14"
       x="140"
       y="-4"
       inkscape:export-filename="/home/epsi/Dropbox/2018 - Inkscape/themes/xfgaps/xfwm4/maximize-active.png"
       inkscape:export-xdpi="90"
       inkscape:export-ydpi="90" />
    <rect
       y="-46"
       x="140"
       height="14"
       width="20"
       id="rect4249"
       style="display:inline;opacity:1;fill:#1976d2;fill-opacity:1;stroke:none;stroke-width:0.68797964;stroke-miterlimit:4;stroke-dasharray:none;stroke-opacity:1"
       inkscape:export-filename="/home/epsi/Dropbox/2018 - Inkscape/themes/xfgaps/xfwm4/maximize-pressed.png"
       inkscape:export-xdpi="90"
       inkscape:export-ydpi="90" />
    <rect
       style="display:inline;opacity:1;fill:#1976d2;fill-opacity:1;stroke:none;stroke-width:0.68797964;stroke-miterlimit:4;stroke-dasharray:none;stroke-opacity:1"
       id="rect5438"
       width="20"
       height="14"
       x="160"
       y="-4"
       inkscape:export-filename="/home/epsi/Dropbox/2018 - Inkscape/themes/xfgaps/xfwm4/maximize-toggled-active.png"
       inkscape:export-xdpi="90"
       inkscape:export-ydpi="90" />
    <rect
       y="-46"
       x="160"
       height="14"
       width="20"
       id="rect5440"
       style="display:inline;opacity:1;fill:#64b5f6;fill-opacity:1;stroke:none;stroke-width:0.68797964;stroke-miterlimit:4;stroke-dasharray:none;stroke-opacity:1"
       inkscape:export-filename="/home/epsi/Dropbox/2018 - Inkscape/themes/xfgaps/xfwm4/maximize-toggled-pressed.png"
       inkscape:export-xdpi="90"
       inkscape:export-ydpi="90" />
    <rect
       y="-4"
       x="180"
       height="14"
       width="20"
       id="rect5442"
       style="display:inline;opacity:1;fill:#64b5f6;fill-opacity:1;stroke:none;stroke-width:0.68797964;stroke-miterlimit:4;stroke-dasharray:none;stroke-opacity:1"
       inkscape:export-filename="/home/epsi/Dropbox/2018 - Inkscape/themes/xfgaps/xfwm4/close-active.png"
       inkscape:export-xdpi="90"
       inkscape:export-ydpi="90" />
    <rect
       style="display:inline;opacity:1;fill:#1976d2;fill-opacity:1;stroke:none;stroke-width:0.68797964;stroke-miterlimit:4;stroke-dasharray:none;stroke-opacity:1"
       id="rect5444"
       width="20"
       height="14"
       x="180"
       y="-46"
       inkscape:export-filename="/home/epsi/Dropbox/2018 - Inkscape/themes/xfgaps/xfwm4/close-pressed.png"
       inkscape:export-xdpi="90"
       inkscape:export-ydpi="90" />
    <rect
       y="-4"
       x="200"
       height="14"
       width="20"
       id="rect5787"
       style="display:inline;opacity:1;fill:#000050;fill-opacity:1;stroke:none;stroke-width:0.68797964;stroke-miterlimit:4;stroke-dasharray:none;stroke-opacity:1"
       inkscape:export-filename="/home/epsi/Dropbox/2018 - Inkscape/themes/xfgaps/xfwm4/stick-active.png"
       inkscape:export-xdpi="90"
       inkscape:export-ydpi="90" />
    <rect
       style="display:inline;opacity:1;fill:#000050;fill-opacity:1;stroke:none;stroke-width:0.68797964;stroke-miterlimit:4;stroke-dasharray:none;stroke-opacity:1"
       id="rect5789"
       width="20"
       height="14"
       x="200"
       y="-46"
       inkscape:export-filename="/home/epsi/Dropbox/2018 - Inkscape/themes/xfgaps/xfwm4/stick-pressed.png"
       inkscape:export-xdpi="90"
       inkscape:export-ydpi="90" />
    <rect
       style="display:inline;opacity:1;fill:#000050;fill-opacity:1;stroke:none;stroke-width:0.68797964;stroke-miterlimit:4;stroke-dasharray:none;stroke-opacity:1"
       id="rect5791"
       width="20"
       height="14"
       x="220"
       y="-4"
       inkscape:export-filename="/home/epsi/Dropbox/2018 - Inkscape/themes/xfgaps/xfwm4/stick-toggled-active.png"
       inkscape:export-xdpi="90"
       inkscape:export-ydpi="90" />
    <rect
       y="-46"
       x="220"
       height="14"
       width="20"
       id="rect5793"
       style="display:inline;opacity:1;fill:#000050;fill-opacity:1;stroke:none;stroke-width:0.68797964;stroke-miterlimit:4;stroke-dasharray:none;stroke-opacity:1"
       inkscape:export-filename="/home/epsi/Dropbox/2018 - Inkscape/themes/xfgaps/xfwm4/stick-toggled-pressed.png"
       inkscape:export-xdpi="90"
       inkscape:export-ydpi="90" />
    <rect
       y="-4"
       x="260"
       height="14"
       width="28"
       id="rect6138"
       style="display:inline;opacity:1;fill:#64b5f6;fill-opacity:1;stroke:none;stroke-width:0.68797964;stroke-miterlimit:4;stroke-dasharray:none;stroke-opacity:1" />
    <rect
       style="display:inline;opacity:1;fill:#1976d2;fill-opacity:1;stroke:none;stroke-width:0.68797964;stroke-miterlimit:4;stroke-dasharray:none;stroke-opacity:1"
       id="rect6140"
       width="28"
       height="14"
       x="260"
       y="-46" />
    <rect
       y="-18"
       x="80"
       height="14"
       width="20"
       id="rect6148"
       style="display:inline;opacity:1;fill:#64b5f6;fill-opacity:1;stroke:none;stroke-width:0.68797964;stroke-miterlimit:4;stroke-dasharray:none;stroke-opacity:1"
       inkscape:export-filename="/home/epsi/Dropbox/2018 - Inkscape/themes/xfgaps/xfwm4/shade-inactive.png"
       inkscape:export-xdpi="90"
       inkscape:export-ydpi="90" />
    <rect
       style="display:inline;opacity:1;fill:#1976d2;fill-opacity:1;stroke:none;stroke-width:0.68797964;stroke-miterlimit:4;stroke-dasharray:none;stroke-opacity:1"
       id="rect6154"
       width="20"
       height="14"
       x="100"
       y="-18"
       inkscape:export-filename="/home/epsi/Dropbox/2018 - Inkscape/themes/xfgaps/xfwm4/shade-toggled-inactive.png"
       inkscape:export-xdpi="90"
       inkscape:export-ydpi="90" />
    <rect
       y="-18"
       x="120"
       height="14"
       width="20"
       id="rect6160"
       style="display:inline;opacity:1;fill:#64b5f6;fill-opacity:1;stroke:none;stroke-width:0.68797964;stroke-miterlimit:4;stroke-dasharray:none;stroke-opacity:1"
       inkscape:export-filename="/home/epsi/Dropbox/2018 - Inkscape/themes/xfgaps/xfwm4/hide-inactive.png"
       inkscape:export-xdpi="90"
       inkscape:export-ydpi="90" />
    <rect
       style="display:inline;opacity:1;fill:#1976d2;fill-opacity:1;stroke:none;stroke-width:0.68797964;stroke-miterlimit:4;stroke-dasharray:none;stroke-opacity:1"
       id="rect6166"
       width="20"
       height="14"
       x="140"
       y="-18"
       inkscape:export-filename="/home/epsi/Dropbox/2018 - Inkscape/themes/xfgaps/xfwm4/maximize-inactive.png"
       inkscape:export-xdpi="90"
       inkscape:export-ydpi="90" />
    <rect
       style="display:inline;opacity:1;fill:#64b5f6;fill-opacity:1;stroke:none;stroke-width:0.68797964;stroke-miterlimit:4;stroke-dasharray:none;stroke-opacity:1"
       id="rect6190"
       width="20"
       height="14"
       x="160"
       y="-18"
       inkscape:export-filename="/home/epsi/Dropbox/2018 - Inkscape/themes/xfgaps/xfwm4/maximize-toggled-inactive.png"
       inkscape:export-xdpi="90"
       inkscape:export-ydpi="90" />
    <rect
       y="-18"
       x="180"
       height="14"
       width="20"
       id="rect6192"
       style="display:inline;opacity:1;fill:#1976d2;fill-opacity:1;stroke:none;stroke-width:0.68797964;stroke-miterlimit:4;stroke-dasharray:none;stroke-opacity:1"
       inkscape:export-filename="/home/epsi/Dropbox/2018 - Inkscape/themes/xfgaps/xfwm4/close-inactive.png"
       inkscape:export-xdpi="90"
       inkscape:export-ydpi="90" />
    <rect
       y="-18"
       x="200"
       height="14"
       width="20"
       id="rect6214"
       style="display:inline;opacity:1;fill:#000050;fill-opacity:1;stroke:none;stroke-width:0.68797964;stroke-miterlimit:4;stroke-dasharray:none;stroke-opacity:1"
       inkscape:export-filename="/home/epsi/Dropbox/2018 - Inkscape/themes/xfgaps/xfwm4/stick-inactive.png"
       inkscape:export-xdpi="90"
       inkscape:export-ydpi="90" />
    <rect
       style="display:inline;opacity:1;fill:#000050;fill-opacity:1;stroke:none;stroke-width:0.68797964;stroke-miterlimit:4;stroke-dasharray:none;stroke-opacity:1"
       id="rect6216"
       width="20"
       height="14"
       x="220"
       y="-18"
       inkscape:export-filename="/home/epsi/Dropbox/2018 - Inkscape/themes/xfgaps/xfwm4/stick-toggled-inactive.png"
       inkscape:export-xdpi="90"
       inkscape:export-ydpi="90" />
    <rect
       y="-18"
       x="260"
       height="14"
       width="28"
       id="rect6232"
       style="display:inline;opacity:1;fill:#1976d2;fill-opacity:1;stroke:none;stroke-width:0.68797964;stroke-miterlimit:4;stroke-dasharray:none;stroke-opacity:1" />
    <rect
       style="display:inline;opacity:1;fill:#1976d2;fill-opacity:1;stroke:none;stroke-width:0.68797964;stroke-miterlimit:4;stroke-dasharray:none;stroke-opacity:1"
       id="rect6234"
       width="20"
       height="14"
       x="80"
       y="-32"
       inkscape:export-filename="/home/epsi/Dropbox/2018 - Inkscape/themes/xfgaps/xfwm4/shade-prelight.png"
       inkscape:export-xdpi="90"
       inkscape:export-ydpi="90" />
    <rect
       y="-32"
       x="100"
       height="14"
       width="20"
       id="rect6236"
       style="display:inline;opacity:1;fill:#64b5f6;fill-opacity:1;stroke:none;stroke-width:0.68797964;stroke-miterlimit:4;stroke-dasharray:none;stroke-opacity:1"
       inkscape:export-filename="/home/epsi/Dropbox/2018 - Inkscape/themes/xfgaps/xfwm4/shade-toggled-prelight.png"
       inkscape:export-xdpi="90"
       inkscape:export-ydpi="90" />
    <rect
       style="display:inline;opacity:1;fill:#1976d2;fill-opacity:1;stroke:none;stroke-width:0.68797964;stroke-miterlimit:4;stroke-dasharray:none;stroke-opacity:1"
       id="rect6238"
       width="20"
       height="14"
       x="120"
       y="-32"
       inkscape:export-filename="/home/epsi/Dropbox/2018 - Inkscape/themes/xfgaps/xfwm4/hide-prelight.png"
       inkscape:export-xdpi="90"
       inkscape:export-ydpi="90" />
    <rect
       y="-32"
       x="140"
       height="14"
       width="20"
       id="rect6240"
       style="display:inline;opacity:1;fill:#64b5f6;fill-opacity:1;stroke:none;stroke-width:0.68797964;stroke-miterlimit:4;stroke-dasharray:none;stroke-opacity:1"
       inkscape:export-filename="/home/epsi/Dropbox/2018 - Inkscape/themes/xfgaps/xfwm4/maximize-prelight.png"
       inkscape:export-xdpi="90"
       inkscape:export-ydpi="90" />
    <rect
       y="-32"
       x="160"
       height="14"
       width="20"
       id="rect6248"
       style="display:inline;opacity:1;fill:#1976d2;fill-opacity:1;stroke:none;stroke-width:0.68797964;stroke-miterlimit:4;stroke-dasharray:none;stroke-opacity:1"
       inkscape:export-filename="/home/epsi/Dropbox/2018 - Inkscape/themes/xfgaps/xfwm4/maximize-toggled-prelight.png"
       inkscape:export-xdpi="90"
       inkscape:export-ydpi="90" />
    <rect
       style="display:inline;opacity:1;fill:#64b5f6;fill-opacity:1;stroke:none;stroke-width:0.68797964;stroke-miterlimit:4;stroke-dasharray:none;stroke-opacity:1"
       id="rect6250"
       width="20"
       height="14"
       x="180"
       y="-32"
       inkscape:export-filename="/home/epsi/Dropbox/2018 - Inkscape/themes/xfgaps/xfwm4/close-prelight.png"
       inkscape:export-xdpi="90"
       inkscape:export-ydpi="90" />
    <rect
       style="display:inline;opacity:1;fill:#000050;fill-opacity:1;stroke:none;stroke-width:0.68797964;stroke-miterlimit:4;stroke-dasharray:none;stroke-opacity:1"
       id="rect6252"
       width="20"
       height="14"
       x="200"
       y="-32"
       inkscape:export-xdpi="90"
       inkscape:export-ydpi="90"
       inkscape:export-filename="/home/epsi/Dropbox/2018 - Inkscape/themes/xfgaps/xfwm4/stick-prelight.png" />
    <rect
       y="-32"
       x="220"
       height="14"
       width="20"
       id="rect6254"
       style="display:inline;opacity:1;fill:#000050;fill-opacity:1;stroke:none;stroke-width:0.68797964;stroke-miterlimit:4;stroke-dasharray:none;stroke-opacity:1"
       inkscape:export-xdpi="90"
       inkscape:export-ydpi="90"
       inkscape:export-filename="/home/epsi/Dropbox/2018 - Inkscape/themes/xfgaps/xfwm4/stick-toggled-prelight.png" />
    <rect
       style="display:inline;opacity:1;fill:#64b5f6;fill-opacity:1;stroke:none;stroke-width:0.68797964;stroke-miterlimit:4;stroke-dasharray:none;stroke-opacity:1"
       id="rect6258"
       width="28"
       height="14"
       x="260"
       y="-32" />
    <rect
       y="10"
       x="80"
       height="30"
       width="20"
       id="rect6272"
       style="display:inline;opacity:1;fill:#64b5f6;fill-opacity:1;stroke:none;stroke-width:0.68797964;stroke-miterlimit:4;stroke-dasharray:none;stroke-opacity:1" />
    <rect
       style="display:inline;opacity:1;fill:#1976d2;fill-opacity:1;stroke:none;stroke-width:0.68797964;stroke-miterlimit:4;stroke-dasharray:none;stroke-opacity:1"
       id="rect6274"
       width="20"
       height="30"
       x="100"
       y="10" />
    <rect
       y="10"
       x="120"
       height="30"
       width="20"
       id="rect6276"
       style="display:inline;opacity:1;fill:#64b5f6;fill-opacity:1;stroke:none;stroke-width:0.68797964;stroke-miterlimit:4;stroke-dasharray:none;stroke-opacity:1" />
    <rect
       style="display:inline;opacity:1;fill:#1976d2;fill-opacity:1;stroke:none;stroke-width:0.68797964;stroke-miterlimit:4;stroke-dasharray:none;stroke-opacity:1"
       id="rect6278"
       width="20"
       height="30"
       x="140"
       y="10" />
    <rect
       style="display:inline;opacity:1;fill:#64b5f6;fill-opacity:1;stroke:none;stroke-width:0.68797964;stroke-miterlimit:4;stroke-dasharray:none;stroke-opacity:1"
       id="rect6286"
       width="20"
       height="30"
       x="160"
       y="10" />
    <rect
       y="10"
       x="180"
       height="30"
       width="20"
       id="rect6288"
       style="display:inline;opacity:1;fill:#1976d2;fill-opacity:1;stroke:none;stroke-width:0.68797964;stroke-miterlimit:4;stroke-dasharray:none;stroke-opacity:1" />
    <rect
       y="10"
       x="200"
       height="30"
       width="20"
       id="rect6290"
       style="display:inline;opacity:1;fill:#64b5f6;fill-opacity:1;stroke:none;stroke-width:0.68797964;stroke-miterlimit:4;stroke-dasharray:none;stroke-opacity:1" />
    <rect
       style="display:inline;opacity:1;fill:#1976d2;fill-opacity:1;stroke:none;stroke-width:0.68797964;stroke-miterlimit:4;stroke-dasharray:none;stroke-opacity:1"
       id="rect6292"
       width="20"
       height="30"
       x="220"
       y="10" />
    <rect
       style="display:inline;opacity:1;fill:#64b5f6;fill-opacity:1;stroke:none;stroke-width:0.68797964;stroke-miterlimit:4;stroke-dasharray:none;stroke-opacity:1"
       id="rect6294"
       width="20"
       height="30"
       x="240"
       y="10" />
    <rect
       y="10"
       x="260"
       height="30"
       width="28"
       id="rect6296"
       style="display:inline;opacity:1;fill:#1976d2;fill-opacity:1;stroke:none;stroke-width:0.68797964;stroke-miterlimit:4;stroke-dasharray:none;stroke-opacity:1" />
    <rect
       inkscape:export-ydpi="90"
       inkscape:export-xdpi="90"
       inkscape:export-filename="/home/epsi/Dropbox/2018 - Inkscape/themes/xfgaps/xfwm4/stick-active.png"
       style="display:inline;opacity:1;fill:#1976d2;fill-opacity:1;stroke:none;stroke-width:0.68797964;stroke-miterlimit:4;stroke-dasharray:none;stroke-opacity:1"
       id="rect4643"
       width="20"
       height="14"
       x="200"
       y="-4" />
    <rect
       inkscape:export-ydpi="90"
       inkscape:export-xdpi="90"
       inkscape:export-filename="/home/epsi/Dropbox/2018 - Inkscape/themes/xfgaps/xfwm4/stick-pressed.png"
       y="-46"
       x="200"
       height="14"
       width="20"
       id="rect4645"
       style="display:inline;opacity:1;fill:#64b5f6;fill-opacity:1;stroke:none;stroke-width:0.68797964;stroke-miterlimit:4;stroke-dasharray:none;stroke-opacity:1" />
    <rect
       inkscape:export-ydpi="90"
       inkscape:export-xdpi="90"
       inkscape:export-filename="/home/epsi/Dropbox/2018 - Inkscape/themes/xfgaps/xfwm4/stick-inactive.png"
       style="display:inline;opacity:1;fill:#64b5f6;fill-opacity:1;stroke:none;stroke-width:0.68797964;stroke-miterlimit:4;stroke-dasharray:none;stroke-opacity:1"
       id="rect4647"
       width="20"
       height="14"
       x="200"
       y="-18" />
    <rect
       inkscape:export-ydpi="90"
       inkscape:export-xdpi="90"
       inkscape:export-filename="/home/epsi/Dropbox/2018 - Inkscape/themes/xfgaps/xfwm4/stick-prelight.png"
       y="-32"
       x="200"
       height="14"
       width="20"
       id="rect4649"
       style="display:inline;opacity:1;fill:#1976d2;fill-opacity:1;stroke:none;stroke-width:0.68797964;stroke-miterlimit:4;stroke-dasharray:none;stroke-opacity:1" />
    <rect
       inkscape:export-ydpi="90"
       inkscape:export-xdpi="90"
       inkscape:export-filename="/home/epsi/Dropbox/2018 - Inkscape/themes/xfgaps/xfwm4/stick-active.png"
       style="display:inline;opacity:1;fill:#000050;fill-opacity:1;stroke:none;stroke-width:0.68797964;stroke-miterlimit:4;stroke-dasharray:none;stroke-opacity:1"
       id="rect4673"
       width="20"
       height="14"
       x="220"
       y="-4" />
    <rect
       inkscape:export-ydpi="90"
       inkscape:export-xdpi="90"
       inkscape:export-filename="/home/epsi/Dropbox/2018 - Inkscape/themes/xfgaps/xfwm4/stick-pressed.png"
       y="-46"
       x="220"
       height="14"
       width="20"
       id="rect4675"
       style="display:inline;opacity:1;fill:#000050;fill-opacity:1;stroke:none;stroke-width:0.68797964;stroke-miterlimit:4;stroke-dasharray:none;stroke-opacity:1" />
    <rect
       inkscape:export-ydpi="90"
       inkscape:export-xdpi="90"
       inkscape:export-filename="/home/epsi/Dropbox/2018 - Inkscape/themes/xfgaps/xfwm4/stick-inactive.png"
       style="display:inline;opacity:1;fill:#000050;fill-opacity:1;stroke:none;stroke-width:0.68797964;stroke-miterlimit:4;stroke-dasharray:none;stroke-opacity:1"
       id="rect4677"
       width="20"
       height="14"
       x="220"
       y="-18" />
    <rect
       inkscape:export-filename="/home/epsi/Dropbox/2018 - Inkscape/themes/xfgaps/xfwm4/stick-prelight.png"
       inkscape:export-ydpi="90"
       inkscape:export-xdpi="90"
       y="-32"
       x="220"
       height="14"
       width="20"
       id="rect4679"
       style="display:inline;opacity:1;fill:#000050;fill-opacity:1;stroke:none;stroke-width:0.68797964;stroke-miterlimit:4;stroke-dasharray:none;stroke-opacity:1" />
    <rect
       y="-4"
       x="220"
       height="14"
       width="20"
       id="rect4681"
       style="display:inline;opacity:1;fill:#64b5f6;fill-opacity:1;stroke:none;stroke-width:0.68797964;stroke-miterlimit:4;stroke-dasharray:none;stroke-opacity:1"
       inkscape:export-filename="/home/epsi/Dropbox/2018 - Inkscape/themes/xfgaps/xfwm4/stick-toggled-active.png"
       inkscape:export-xdpi="90"
       inkscape:export-ydpi="90" />
    <rect
       style="display:inline;opacity:1;fill:#1976d2;fill-opacity:1;stroke:none;stroke-width:0.68797964;stroke-miterlimit:4;stroke-dasharray:none;stroke-opacity:1"
       id="rect4683"
       width="20"
       height="14"
       x="220"
       y="-46"
       inkscape:export-filename="/home/epsi/Dropbox/2018 - Inkscape/themes/xfgaps/xfwm4/stick-toggled-pressed.png"
       inkscape:export-xdpi="90"
       inkscape:export-ydpi="90" />
    <rect
       y="-18"
       x="220"
       height="14"
       width="20"
       id="rect4685"
       style="display:inline;opacity:1;fill:#1976d2;fill-opacity:1;stroke:none;stroke-width:0.68797964;stroke-miterlimit:4;stroke-dasharray:none;stroke-opacity:1"
       inkscape:export-filename="/home/epsi/Dropbox/2018 - Inkscape/themes/xfgaps/xfwm4/stick-toggled-inactive.png"
       inkscape:export-xdpi="90"
       inkscape:export-ydpi="90" />
    <rect
       style="display:inline;opacity:1;fill:#64b5f6;fill-opacity:1;stroke:none;stroke-width:0.68797964;stroke-miterlimit:4;stroke-dasharray:none;stroke-opacity:1"
       id="rect4687"
       width="20"
       height="14"
       x="220"
       y="-32"
       inkscape:export-filename="/home/epsi/Dropbox/2018 - Inkscape/themes/xfgaps/xfwm4/stick-toggled-prelight.png"
       inkscape:export-xdpi="90"
       inkscape:export-ydpi="90" />
    <rect
       y="-4"
       x="240"
       height="14"
       width="20"
       id="rect4711"
       style="display:inline;opacity:1;fill:#1976d2;fill-opacity:1;stroke:none;stroke-width:0.68797964;stroke-miterlimit:4;stroke-dasharray:none;stroke-opacity:1"
       inkscape:export-filename="/home/epsi/Dropbox/2018 - Inkscape/themes/xfgaps/xfwm4/menu-active.png"
       inkscape:export-xdpi="90"
       inkscape:export-ydpi="90" />
    <rect
       style="display:inline;opacity:1;fill:#64b5f6;fill-opacity:1;stroke:none;stroke-width:0.68797964;stroke-miterlimit:4;stroke-dasharray:none;stroke-opacity:1"
       id="rect4713"
       width="20"
       height="14"
       x="240"
       y="-46"
       inkscape:export-filename="/home/epsi/Dropbox/2018 - Inkscape/themes/xfgaps/xfwm4/menu-pressed.png"
       inkscape:export-xdpi="90"
       inkscape:export-ydpi="90" />
    <rect
       y="-18"
       x="240"
       height="14"
       width="20"
       id="rect4715"
       style="display:inline;opacity:1;fill:#64b5f6;fill-opacity:1;stroke:none;stroke-width:0.68797964;stroke-miterlimit:4;stroke-dasharray:none;stroke-opacity:1"
       inkscape:export-filename="/home/epsi/Dropbox/2018 - Inkscape/themes/xfgaps/xfwm4/menu-inactive.png"
       inkscape:export-xdpi="90"
       inkscape:export-ydpi="90" />
    <rect
       style="display:inline;opacity:1;fill:#1976d2;fill-opacity:1;stroke:none;stroke-width:0.68797964;stroke-miterlimit:4;stroke-dasharray:none;stroke-opacity:1"
       id="rect4717"
       width="20"
       height="14"
       x="240"
       y="-32"
       inkscape:export-xdpi="90"
       inkscape:export-ydpi="90"
       inkscape:export-filename="/home/epsi/Dropbox/2018 - Inkscape/themes/xfgaps/xfwm4/menu-prelight.png" />
    <rect
       style="opacity:1;fill:#2196f3;fill-opacity:1;stroke:none;stroke-width:0.37795275;stroke-miterlimit:4;stroke-dasharray:none;stroke-opacity:1"
       id="rect4419"
       width="10"
       height="10"
       x="0"
       y="30"
       inkscape:export-filename="/home/epsi/Dropbox/2018 - Inkscape/themes/xfgaps/xfwm4/bottom-left-active.png"
       inkscape:export-xdpi="90"
       inkscape:export-ydpi="90" />
    <rect
       y="30"
       x="10"
       height="10"
       width="20"
       id="rect4421"
       style="opacity:1;fill:#1976d2;fill-opacity:1;stroke:none;stroke-width:0.37795275;stroke-miterlimit:4;stroke-dasharray:none;stroke-opacity:1"
       inkscape:export-filename="/home/epsi/Dropbox/2018 - Inkscape/themes/xfgaps/xfwm4/bottom-active.png"
       inkscape:export-xdpi="90"
       inkscape:export-ydpi="90" />
    <rect
       y="30"
       x="30"
       height="10"
       width="10"
       id="rect4423"
       style="opacity:1;fill:#2196f3;fill-opacity:1;stroke:none;stroke-width:0.37795275;stroke-miterlimit:4;stroke-dasharray:none;stroke-opacity:1"
       inkscape:export-filename="/home/epsi/Dropbox/2018 - Inkscape/themes/xfgaps/xfwm4/bottom-right-active.png"
       inkscape:export-xdpi="90"
       inkscape:export-ydpi="90" />
    <rect
       y="10"
       x="0"
       height="20"
       width="10"
       id="rect4425"
       style="opacity:1;fill:#1976d2;fill-opacity:1;stroke:none;stroke-width:0.37795275;stroke-miterlimit:4;stroke-dasharray:none;stroke-opacity:1"
       inkscape:export-filename="/home/epsi/Dropbox/2018 - Inkscape/themes/xfgaps/xfwm4/left-active.png"
       inkscape:export-xdpi="90"
       inkscape:export-ydpi="90" />
    <rect
       inkscape:export-ydpi="90"
       inkscape:export-xdpi="90"
       inkscape:export-filename="/home/epsi/Dropbox/2018 - Inkscape/themes/xfgaps/xfwm4/top-left-active.png"
       y="-4"
       x="0"
       height="14"
       width="10"
       id="rect4427"
       style="opacity:1;fill:#2196f3;fill-opacity:1;stroke:none;stroke-width:0.37795275;stroke-miterlimit:4;stroke-dasharray:none;stroke-opacity:1" />
    <rect
       style="opacity:1;fill:#1976d2;fill-opacity:1;stroke:none;stroke-width:0.37795275;stroke-miterlimit:4;stroke-dasharray:none;stroke-opacity:1"
       id="rect4429"
       width="10"
       height="20"
       x="30"
       y="10"
       inkscape:export-filename="/home/epsi/Dropbox/2018 - Inkscape/themes/xfgaps/xfwm4/right-active.png"
       inkscape:export-xdpi="90"
       inkscape:export-ydpi="90" />
    <rect
       style="opacity:1;fill:#1976d2;fill-opacity:1;stroke:none;stroke-width:0.37795275;stroke-miterlimit:4;stroke-dasharray:none;stroke-opacity:1"
       id="rect4431"
       width="10"
       height="14"
       x="10"
       y="-4"
       inkscape:export-filename="/home/epsi/Dropbox/2018 - Inkscape/themes/xfgaps/xfwm4/title-1-active.png"
       inkscape:export-xdpi="90"
       inkscape:export-ydpi="90" />
    <rect
       style="opacity:1;fill:#2196f3;fill-opacity:1;stroke:none;stroke-width:0.37795275;stroke-miterlimit:4;stroke-dasharray:none;stroke-opacity:1"
       id="rect4433"
       width="10"
       height="14"
       x="30"
       y="-4"
       inkscape:export-filename="/home/epsi/Dropbox/2018 - Inkscape/themes/xfgaps/xfwm4/top-right-active.png"
       inkscape:export-xdpi="90"
       inkscape:export-ydpi="90" />
    <rect
       inkscape:export-ydpi="90"
       inkscape:export-xdpi="90"
       inkscape:export-filename="/home/epsi/Dropbox/2018 - Inkscape/themes/xfgaps/xfwm4/title-2-active.png"
       y="-4"
       x="20"
       height="14"
       width="10"
       id="rect4435"
       style="opacity:1;fill:#64b5f6;fill-opacity:1;stroke:none;stroke-width:0.37795275;stroke-miterlimit:4;stroke-dasharray:none;stroke-opacity:1" />
    <rect
       style="opacity:1;fill:#1976d2;fill-opacity:1;stroke:none;stroke-width:0.37795275;stroke-miterlimit:4;stroke-dasharray:none;stroke-opacity:1"
       id="rect4437"
       width="10"
       height="14"
       x="44"
       y="-4"
       inkscape:export-filename="/home/epsi/Dropbox/2018 - Inkscape/themes/xfgaps/xfwm4/title-3-active.png"
       inkscape:export-xdpi="90"
       inkscape:export-ydpi="90" />
    <rect
       inkscape:export-ydpi="90"
       inkscape:export-xdpi="90"
       inkscape:export-filename="/home/epsi/Dropbox/2018 - Inkscape/themes/xfgaps/xfwm4/title-4-active.png"
       y="-4"
       x="54"
       height="14"
       width="10"
       id="rect4439"
       style="opacity:1;fill:#64b5f6;fill-opacity:1;stroke:none;stroke-width:0.37795275;stroke-miterlimit:4;stroke-dasharray:none;stroke-opacity:1" />
    <rect
       style="opacity:1;fill:#1976d2;fill-opacity:1;stroke:none;stroke-width:0.37795275;stroke-miterlimit:4;stroke-dasharray:none;stroke-opacity:1"
       id="rect4441"
       width="10"
       height="14"
       x="64"
       y="-4"
       inkscape:export-filename="/home/epsi/Dropbox/2018 - Inkscape/themes/xfgaps/xfwm4/title-5-active.png"
       inkscape:export-xdpi="90"
       inkscape:export-ydpi="90" />
  </g>
  <g
     inkscape:groupmode="layer"
     id="layer4"
     inkscape:label="Theme"
     style="display:inline"
     transform="translate(0,20)">
    <rect
       inkscape:export-ydpi="90"
       inkscape:export-xdpi="90"
       inkscape:export-filename="/home/epsi/Dropbox/2018 - Inkscape/themes/xfgaps/xfwm4/bottom-active.png"
       style="display:inline;opacity:1;fill:#000000;fill-opacity:1;stroke:none;stroke-width:0.37795275;stroke-miterlimit:4;stroke-dasharray:none;stroke-opacity:1"
       id="rect4240"
       width="10"
       height="10"
       x="10"
       y="40" />
    <rect
       y="40"
       x="44"
       height="10"
       width="10"
       id="rect4267"
       style="display:inline;opacity:1;fill:#000000;fill-opacity:1;stroke:none;stroke-width:0.37795275;stroke-miterlimit:4;stroke-dasharray:none;stroke-opacity:1"
       inkscape:export-filename="/home/epsi/Dropbox/2018 - Inkscape/themes/xfgaps/xfwm4/bottom-active.png"
       inkscape:export-xdpi="90"
       inkscape:export-ydpi="90" />
    <rect
       inkscape:export-ydpi="90"
       inkscape:export-xdpi="90"
       inkscape:export-filename="/home/epsi/Dropbox/2018 - Inkscape/themes/xfgaps/xfwm4/bottom-active.png"
       style="display:inline;opacity:1;fill:#000000;fill-opacity:1;stroke:none;stroke-width:0.37795275;stroke-miterlimit:4;stroke-dasharray:none;stroke-opacity:1"
       id="rect4275"
       width="10"
       height="10"
       x="64"
       y="40" />
    <rect
       y="40"
       x="80"
       height="10"
       width="160"
       id="rect4740"
       style="display:inline;opacity:1;fill:#000000;fill-opacity:1;stroke:none;stroke-width:0.37795275;stroke-miterlimit:4;stroke-dasharray:none;stroke-opacity:1"
       inkscape:export-filename="/home/epsi/Dropbox/2018 - Inkscape/themes/xfgaps/xfwm4/bottom-active.png"
       inkscape:export-xdpi="90"
       inkscape:export-ydpi="90" />
    <rect
       inkscape:export-ydpi="90"
       inkscape:export-xdpi="90"
       inkscape:export-filename="/home/epsi/Dropbox/2018 - Inkscape/themes/xfgaps/xfwm4/bottom-active.png"
       style="display:inline;opacity:1;fill:#000000;fill-opacity:1;stroke:none;stroke-width:0.37795275;stroke-miterlimit:4;stroke-dasharray:none;stroke-opacity:1"
       id="rect4742"
       width="160"
       height="10"
       x="80"
       y="26" />
    <rect
       inkscape:export-ydpi="90"
       inkscape:export-xdpi="90"
       inkscape:export-filename="/home/epsi/Dropbox/2018 - Inkscape/themes/xfgaps/xfwm4/bottom-active.png"
       style="display:inline;opacity:1;fill:#000000;fill-opacity:1;stroke:none;stroke-width:0.37795275;stroke-miterlimit:4;stroke-dasharray:none;stroke-opacity:1"
       id="rect4746"
       width="160"
       height="14"
       x="80"
       y="-6" />
    <rect
       y="42"
       x="82"
       height="6"
       width="16"
       id="rect4748"
       style="display:inline;opacity:1;fill:#fff176;fill-opacity:1;stroke:none;stroke-width:0.37795275;stroke-miterlimit:4;stroke-dasharray:none;stroke-opacity:1"
       inkscape:export-filename="/home/epsi/Dropbox/2018 - Inkscape/themes/xfgaps/xfwm4/bottom-active.png"
       inkscape:export-xdpi="90"
       inkscape:export-ydpi="90" />
    <rect
       inkscape:export-ydpi="90"
       inkscape:export-xdpi="90"
       inkscape:export-filename="/home/epsi/Dropbox/2018 - Inkscape/themes/xfgaps/xfwm4/bottom-active.png"
       style="display:inline;opacity:1;fill:#fff176;fill-opacity:1;stroke:none;stroke-width:0.37795275;stroke-miterlimit:4;stroke-dasharray:none;stroke-opacity:1"
       id="rect4750"
       width="16"
       height="6"
       x="102"
       y="42" />
    <rect
       inkscape:export-ydpi="90"
       inkscape:export-xdpi="90"
       inkscape:export-filename="/home/epsi/Dropbox/2018 - Inkscape/themes/xfgaps/xfwm4/bottom-active.png"
       style="display:inline;opacity:1;fill:#ffeb3b;fill-opacity:1;stroke:none;stroke-width:0.37795275;stroke-miterlimit:4;stroke-dasharray:none;stroke-opacity:1"
       id="rect4752"
       width="16"
       height="6"
       x="122"
       y="42" />
    <rect
       y="42"
       x="142"
       height="6"
       width="16"
       id="rect4754"
       style="display:inline;opacity:1;fill:#fbc02d;fill-opacity:1;stroke:none;stroke-width:0.37795275;stroke-miterlimit:4;stroke-dasharray:none;stroke-opacity:1"
       inkscape:export-filename="/home/epsi/Dropbox/2018 - Inkscape/themes/xfgaps/xfwm4/bottom-active.png"
       inkscape:export-xdpi="90"
       inkscape:export-ydpi="90" />
    <rect
       y="42"
       x="162"
       height="6"
       width="16"
       id="rect4756"
       style="display:inline;opacity:1;fill:#fbc02d;fill-opacity:1;stroke:none;stroke-width:0.37795275;stroke-miterlimit:4;stroke-dasharray:none;stroke-opacity:1"
       inkscape:export-filename="/home/epsi/Dropbox/2018 - Inkscape/themes/xfgaps/xfwm4/bottom-active.png"
       inkscape:export-xdpi="90"
       inkscape:export-ydpi="90" />
    <rect
       inkscape:export-ydpi="90"
       inkscape:export-xdpi="90"
       inkscape:export-filename="/home/epsi/Dropbox/2018 - Inkscape/themes/xfgaps/xfwm4/bottom-active.png"
       style="display:inline;opacity:1;fill:#f57f17;fill-opacity:1;stroke:none;stroke-width:0.37795275;stroke-miterlimit:4;stroke-dasharray:none;stroke-opacity:1"
       id="rect4758"
       width="16"
       height="6"
       x="182"
       y="42" />
    <rect
       inkscape:export-ydpi="90"
       inkscape:export-xdpi="90"
       inkscape:export-filename="/home/epsi/Dropbox/2018 - Inkscape/themes/xfgaps/xfwm4/bottom-active.png"
       style="display:inline;opacity:1;fill:#fff9c4;fill-opacity:1;stroke:none;stroke-width:0.37795275;stroke-miterlimit:4;stroke-dasharray:none;stroke-opacity:1"
       id="rect4760"
       width="16"
       height="6"
       x="202"
       y="42" />
    <rect
       y="42"
       x="222"
       height="6"
       width="16"
       id="rect4762"
       style="display:inline;opacity:1;fill:#fff9c4;fill-opacity:1;stroke:none;stroke-width:0.37795275;stroke-miterlimit:4;stroke-dasharray:none;stroke-opacity:1"
       inkscape:export-filename="/home/epsi/Dropbox/2018 - Inkscape/themes/xfgaps/xfwm4/bottom-active.png"
       inkscape:export-xdpi="90"
       inkscape:export-ydpi="90" />
    <rect
       inkscape:export-ydpi="90"
       inkscape:export-xdpi="90"
       inkscape:export-filename="/home/epsi/Dropbox/2018 - Inkscape/themes/xfgaps/xfwm4/bottom-active.png"
       style="display:inline;opacity:1;fill:#000000;fill-opacity:1;stroke:none;stroke-width:0.37795275;stroke-miterlimit:4;stroke-dasharray:none;stroke-opacity:1"
       id="rect4766"
       width="20"
       height="10"
       x="240"
       y="40" />
    <rect
       y="26"
       x="240"
       height="10"
       width="20"
       id="rect4768"
       style="display:inline;opacity:1;fill:#000000;fill-opacity:1;stroke:none;stroke-width:0.37795275;stroke-miterlimit:4;stroke-dasharray:none;stroke-opacity:1"
       inkscape:export-filename="/home/epsi/Dropbox/2018 - Inkscape/themes/xfgaps/xfwm4/bottom-active.png"
       inkscape:export-xdpi="90"
       inkscape:export-ydpi="90" />
    <rect
       inkscape:export-ydpi="90"
       inkscape:export-xdpi="90"
       inkscape:export-filename="/home/epsi/Dropbox/2018 - Inkscape/themes/xfgaps/xfwm4/bottom-active.png"
       style="display:inline;opacity:1;fill:#000000;fill-opacity:1;stroke:none;stroke-width:0.37795275;stroke-miterlimit:4;stroke-dasharray:none;stroke-opacity:1"
       id="rect4770"
       width="20"
       height="10"
       x="240"
       y="12" />
    <rect
       y="-2"
       x="240"
       height="10"
       width="20"
       id="rect4772"
       style="display:inline;opacity:1;fill:#000000;fill-opacity:1;stroke:none;stroke-width:0.37795275;stroke-miterlimit:4;stroke-dasharray:none;stroke-opacity:1"
       inkscape:export-filename="/home/epsi/Dropbox/2018 - Inkscape/themes/xfgaps/xfwm4/bottom-active.png"
       inkscape:export-xdpi="90"
       inkscape:export-ydpi="90" />
    <rect
       inkscape:export-ydpi="90"
       inkscape:export-xdpi="90"
       inkscape:export-filename="/home/epsi/Dropbox/2018 - Inkscape/themes/xfgaps/xfwm4/bottom-active.png"
       style="display:inline;opacity:1;fill:#fff176;fill-opacity:1;stroke:none;stroke-width:0.37795275;stroke-miterlimit:4;stroke-dasharray:none;stroke-opacity:1"
       id="rect4774"
       width="20"
       height="10"
       x="80"
       y="12" />
    <rect
       y="12"
       x="100"
       height="10"
       width="20"
       id="rect4776"
       style="display:inline;opacity:1;fill:#fff176;fill-opacity:1;stroke:none;stroke-width:0.37795275;stroke-miterlimit:4;stroke-dasharray:none;stroke-opacity:1"
       inkscape:export-filename="/home/epsi/Dropbox/2018 - Inkscape/themes/xfgaps/xfwm4/bottom-active.png"
       inkscape:export-xdpi="90"
       inkscape:export-ydpi="90" />
    <rect
       y="12"
       x="120"
       height="10"
       width="20"
       id="rect4778"
       style="display:inline;opacity:1;fill:#ffeb3b;fill-opacity:1;stroke:none;stroke-width:0.37795275;stroke-miterlimit:4;stroke-dasharray:none;stroke-opacity:1"
       inkscape:export-filename="/home/epsi/Dropbox/2018 - Inkscape/themes/xfgaps/xfwm4/bottom-active.png"
       inkscape:export-xdpi="90"
       inkscape:export-ydpi="90" />
    <rect
       inkscape:export-ydpi="90"
       inkscape:export-xdpi="90"
       inkscape:export-filename="/home/epsi/Dropbox/2018 - Inkscape/themes/xfgaps/xfwm4/bottom-active.png"
       style="display:inline;opacity:1;fill:#fbc02d;fill-opacity:1;stroke:none;stroke-width:0.37795275;stroke-miterlimit:4;stroke-dasharray:none;stroke-opacity:1"
       id="rect4780"
       width="20"
       height="10"
       x="140"
       y="12" />
    <rect
       inkscape:export-ydpi="90"
       inkscape:export-xdpi="90"
       inkscape:export-filename="/home/epsi/Dropbox/2018 - Inkscape/themes/xfgaps/xfwm4/bottom-active.png"
       style="display:inline;opacity:1;fill:#fbc02d;fill-opacity:1;stroke:none;stroke-width:0.37795275;stroke-miterlimit:4;stroke-dasharray:none;stroke-opacity:1"
       id="rect4782"
       width="20"
       height="10"
       x="160"
       y="12" />
    <rect
       y="12"
       x="180"
       height="10"
       width="20"
       id="rect4784"
       style="display:inline;opacity:1;fill:#f57f17;fill-opacity:1;stroke:none;stroke-width:0.37795275;stroke-miterlimit:4;stroke-dasharray:none;stroke-opacity:1"
       inkscape:export-filename="/home/epsi/Dropbox/2018 - Inkscape/themes/xfgaps/xfwm4/bottom-active.png"
       inkscape:export-xdpi="90"
       inkscape:export-ydpi="90" />
    <rect
       y="12"
       x="200"
       height="10"
       width="20"
       id="rect4786"
       style="display:inline;opacity:1;fill:#fff9c4;fill-opacity:1;stroke:none;stroke-width:0.37795275;stroke-miterlimit:4;stroke-dasharray:none;stroke-opacity:1"
       inkscape:export-filename="/home/epsi/Dropbox/2018 - Inkscape/themes/xfgaps/xfwm4/bottom-active.png"
       inkscape:export-xdpi="90"
       inkscape:export-ydpi="90" />
    <rect
       inkscape:export-ydpi="90"
       inkscape:export-xdpi="90"
       inkscape:export-filename="/home/epsi/Dropbox/2018 - Inkscape/themes/xfgaps/xfwm4/bottom-active.png"
       style="display:inline;opacity:1;fill:#fff9c4;fill-opacity:1;stroke:none;stroke-width:0.37795275;stroke-miterlimit:4;stroke-dasharray:none;stroke-opacity:1"
       id="rect4788"
       width="20"
       height="10"
       x="220"
       y="12" />
    <rect
       transform="matrix(0,1,-1,0,0,0)"
       style="display:inline;opacity:1;fill:#ffeb3b;fill-opacity:1;stroke:none;stroke-width:0.37795275;stroke-miterlimit:4;stroke-dasharray:none;stroke-opacity:1"
       id="rect4541"
       width="10"
       height="18"
       x="-2"
       y="-259" />
    <rect
       style="display:inline;opacity:1;fill:#ffeb3b;fill-opacity:1;stroke:none;stroke-width:0.37795275;stroke-miterlimit:4;stroke-dasharray:none;stroke-opacity:1"
       id="rect4572"
       width="20"
       height="3"
       x="80"
       y="5" />
    <rect
       y="5"
       x="100"
       height="3"
       width="20"
       id="rect4574"
       style="display:inline;opacity:1;fill:#ffeb3b;fill-opacity:1;stroke:none;stroke-width:0.37795275;stroke-miterlimit:4;stroke-dasharray:none;stroke-opacity:1" />
    <rect
       style="display:inline;opacity:1;fill:#ffeb3b;fill-opacity:1;stroke:none;stroke-width:0.37795275;stroke-miterlimit:4;stroke-dasharray:none;stroke-opacity:1"
       id="rect4576"
       width="20"
       height="3"
       x="120"
       y="5" />
    <rect
       y="5"
       x="140"
       height="3"
       width="20"
       id="rect4578"
       style="display:inline;opacity:1;fill:#ffeb3b;fill-opacity:1;stroke:none;stroke-width:0.37795275;stroke-miterlimit:4;stroke-dasharray:none;stroke-opacity:1" />
    <rect
       style="display:inline;opacity:1;fill:#ffeb3b;fill-opacity:1;stroke:none;stroke-width:0.37795275;stroke-miterlimit:4;stroke-dasharray:none;stroke-opacity:1"
       id="rect4580"
       width="20"
       height="3"
       x="180"
       y="5" />
    <rect
       style="display:inline;opacity:1;fill:#ffeb3b;fill-opacity:1;stroke:none;stroke-width:0.37795275;stroke-miterlimit:4;stroke-dasharray:none;stroke-opacity:1"
       id="rect4582"
       width="20"
       height="3"
       x="160"
       y="5" />
    <rect
       y="5"
       x="200"
       height="3"
       width="20"
       id="rect4584"
       style="display:inline;opacity:1;fill:#ffeb3b;fill-opacity:1;stroke:none;stroke-width:0.37795275;stroke-miterlimit:4;stroke-dasharray:none;stroke-opacity:1" />
    <rect
       style="display:inline;opacity:1;fill:#ffeb3b;fill-opacity:1;stroke:none;stroke-width:0.37795275;stroke-miterlimit:4;stroke-dasharray:none;stroke-opacity:1"
       id="rect4586"
       width="20"
       height="3"
       x="220"
       y="5" />
    <path
       style="display:inline;opacity:1;fill:#fff176;fill-opacity:1;stroke:none;stroke-width:0.37795275;stroke-miterlimit:4;stroke-dasharray:none;stroke-opacity:1"
       d="M 82.928932,1.8284277 88.585786,-3.8284263 90,-5.2426403 l 1.41421,1.414214 5.65686,5.656854 -1.41422,1.414214 L 90,-2.4142133 84.343146,3.2426417 82.928932,1.8284277 Z"
       id="rect4508"
       inkscape:connector-curvature="0" />
    <rect
       y="0"
       x="123"
       height="2"
       width="14"
       id="rect4564"
       style="display:inline;opacity:1;fill:#fff176;fill-opacity:1;stroke:none;stroke-width:0.37795275;stroke-miterlimit:4;stroke-dasharray:none;stroke-opacity:1" />
    <rect
       style="display:inline;opacity:1;fill:#fff176;fill-opacity:1;stroke:none;stroke-width:0.37795275;stroke-miterlimit:4;stroke-dasharray:none;stroke-opacity:1"
       id="rect4587"
       width="16"
       height="6"
       x="142"
       y="-4" />
    <path
       style="display:inline;opacity:1;fill:#f57f17;fill-opacity:1;stroke:none;stroke-width:0.37795275;stroke-miterlimit:4;stroke-dasharray:none;stroke-opacity:1"
       d="m 185.75736,-3.8284263 2.82843,2.82842702 -2.82843,2.82842698 1.41421,1.414214 L 190,0.41421472 l 2.82843,2.82842698 1.41421,-1.414214 -2.82843,-2.82842698 2.82843,-2.82842702 -1.41421,-1.414214 -2.82843,2.828427 -2.82843,-2.828427 -1.41421,1.414214 z"
       id="rect4609"
       inkscape:connector-curvature="0" />
    <path
       inkscape:connector-curvature="0"
       id="path4893"
       d="m 102.929,-3.8284263 5.65685,5.656854 1.41422,1.414214 1.41421,-1.414214 5.65686,-5.656854 -1.41422,-1.414214 -5.65685,5.65685502 -5.65686,-5.65685502 -1.41421,1.414214 z"
       style="display:inline;opacity:1;fill:#fff176;fill-opacity:1;stroke:none;stroke-width:0.37795275;stroke-miterlimit:4;stroke-dasharray:none;stroke-opacity:1" />
    <path
       inkscape:connector-curvature="0"
       id="path4900"
       d="m 164,-5.9999993 0,6.00000001899414 16,0 L 180,-5.9999993 l -16,0 z m 1,2 14,0 0,2 -14,0 0,-2 z"
       style="display:inline;opacity:1;fill:#f57f17;fill-opacity:1;stroke:none;stroke-width:0.37795275;stroke-miterlimit:4;stroke-dasharray:none;stroke-opacity:1" />
    <path
       style="display:inline;opacity:1;fill:#fff176;fill-opacity:1;stroke:none;stroke-width:0.37795275;stroke-miterlimit:4;stroke-dasharray:none;stroke-opacity:1"
       d="m 160,-1.9999993 0,6 16,0 0,-6 -16,0 z m 1,2.00000001899414 14,0 L 175,2.0000007 l -14,0 L 161,7.1899414e-7 Z"
       id="rect4895"
       inkscape:connector-curvature="0" />
    <path
       style="display:inline;opacity:1;fill:#fff176;fill-opacity:1;stroke:none;stroke-width:0.37795275;stroke-miterlimit:4;stroke-dasharray:none;stroke-opacity:1"
       d="m 210,-5.9999993 a 5,5 0 0 0 -5,5.00000002 5,5 0 0 0 5,4.99999998 5,5 0 0 0 5,-4.99999998 5,5 0 0 0 -5,-5.00000002 z m 0,2 a 3,3 0 0 1 3,3.00000002 3,3 0 0 1 -3,2.99999998 3,3 0 0 1 -3,-2.99999998 3,3 0 0 1 3,-3.00000002 z"
       id="path4909"
       inkscape:connector-curvature="0" />
    <circle
       r="5"
       cy="-1"
       cx="230"
       id="circle4913"
       style="display:inline;opacity:1;fill:#fff176;fill-opacity:1;stroke:none;stroke-width:0.37795275;stroke-miterlimit:4;stroke-dasharray:none;stroke-opacity:1" />
    <circle
       r="3"
       style="display:inline;opacity:1;fill:#f57f17;fill-opacity:1;stroke:none;stroke-width:0.37795275;stroke-miterlimit:4;stroke-dasharray:none;stroke-opacity:1"
       id="circle4915"
       cx="230"
       cy="-1" />
    <rect
       y="-241"
       x="12"
       height="1"
       width="10"
       id="rect4858"
       style="display:inline;opacity:1;fill:#ffeb3b;fill-opacity:1;stroke:none;stroke-width:0.37795275;stroke-miterlimit:4;stroke-dasharray:none;stroke-opacity:1"
       transform="matrix(0,1,-1,0,0,0)" />
    <rect
       transform="matrix(0,1,-1,0,0,0)"
       style="display:inline;opacity:1;fill:#000000;fill-opacity:1;stroke:none;stroke-width:0.37795275;stroke-miterlimit:4;stroke-dasharray:none;stroke-opacity:1"
       id="rect4860"
       width="10"
       height="1"
       x="26"
       y="-241" />
    <rect
       y="-241"
       x="40"
       height="1"
       width="10"
       id="rect4862"
       style="display:inline;opacity:1;fill:#000000;fill-opacity:1;stroke:none;stroke-width:0.37795275;stroke-miterlimit:4;stroke-dasharray:none;stroke-opacity:1"
       transform="matrix(0,1,-1,0,0,0)" />
    <rect
       transform="matrix(0,1,-1,0,0,0)"
       style="display:inline;opacity:1;fill:#ffeb3b;fill-opacity:1;stroke:none;stroke-width:0.37795275;stroke-miterlimit:4;stroke-dasharray:none;stroke-opacity:1"
       id="rect4866"
       width="10"
       height="1"
       x="12"
       y="-260" />
    <rect
       y="-260"
       x="26"
       height="1"
       width="10"
       id="rect4868"
       style="display:inline;opacity:1;fill:#000000;fill-opacity:1;stroke:none;stroke-width:0.37795275;stroke-miterlimit:4;stroke-dasharray:none;stroke-opacity:1"
       transform="matrix(0,1,-1,0,0,0)" />
    <rect
       transform="matrix(0,1,-1,0,0,0)"
       style="display:inline;opacity:1;fill:#000000;fill-opacity:1;stroke:none;stroke-width:0.37795275;stroke-miterlimit:4;stroke-dasharray:none;stroke-opacity:1"
       id="rect4870"
       width="10"
       height="1"
       x="40"
       y="-260" />
    <path
       style="opacity:1;fill:#fff176;fill-opacity:1;stroke:none;stroke-width:0.1;stroke-miterlimit:4;stroke-dasharray:none;stroke-opacity:1"
       d="m 0,90 0,8 0,2 2,0 8,0 0,-2 -8,0 0,-8 -2,0 z"
       transform="translate(0,-20)"
       id="rect3596"
       inkscape:connector-curvature="0" />
    <path
       id="path4401"
       d="m 40,70 0,8 0,2 -2,0 -8,0 0,-2 8,0 0,-8 2,0 z"
       style="opacity:1;fill:#fff176;fill-opacity:1;stroke:none;stroke-width:0.1;stroke-miterlimit:4;stroke-dasharray:none;stroke-opacity:1"
       inkscape:connector-curvature="0" />
    <rect
       y="40"
       x="20"
       height="10"
       width="10"
       id="rect4407"
       style="display:inline;opacity:1;fill:#000000;fill-opacity:1;stroke:none;stroke-width:0.37795275;stroke-miterlimit:4;stroke-dasharray:none;stroke-opacity:1"
       inkscape:export-filename="/home/epsi/Dropbox/2018 - Inkscape/themes/xfgaps/xfwm4/bottom-active.png"
       inkscape:export-xdpi="90"
       inkscape:export-ydpi="90" />
    <rect
       inkscape:export-ydpi="90"
       inkscape:export-xdpi="90"
       inkscape:export-filename="/home/epsi/Dropbox/2018 - Inkscape/themes/xfgaps/xfwm4/bottom-active.png"
       style="display:inline;opacity:1;fill:#000000;fill-opacity:1;stroke:none;stroke-width:0.37795275;stroke-miterlimit:4;stroke-dasharray:none;stroke-opacity:1"
       id="rect4409"
       width="10"
       height="10"
       x="54"
       y="40" />
    <rect
       y="-10"
       x="10"
       height="10"
       width="10"
       id="rect4417"
       style="display:inline;opacity:1;fill:#000000;fill-opacity:1;stroke:none;stroke-width:0.37795275;stroke-miterlimit:4;stroke-dasharray:none;stroke-opacity:1"
       inkscape:export-filename="/home/epsi/Dropbox/2018 - Inkscape/themes/xfgaps/xfwm4/bottom-active.png"
       inkscape:export-xdpi="90"
       inkscape:export-ydpi="90" />
    <rect
       inkscape:export-ydpi="90"
       inkscape:export-xdpi="90"
       inkscape:export-filename="/home/epsi/Dropbox/2018 - Inkscape/themes/xfgaps/xfwm4/bottom-active.png"
       style="display:inline;opacity:1;fill:#000000;fill-opacity:1;stroke:none;stroke-width:0.37795275;stroke-miterlimit:4;stroke-dasharray:none;stroke-opacity:1"
       id="rect4422"
       width="10"
       height="10"
       x="44"
       y="-10" />
    <rect
       y="-10"
       x="64"
       height="10"
       width="10"
       id="rect4424"
       style="display:inline;opacity:1;fill:#000000;fill-opacity:1;stroke:none;stroke-width:0.37795275;stroke-miterlimit:4;stroke-dasharray:none;stroke-opacity:1"
       inkscape:export-filename="/home/epsi/Dropbox/2018 - Inkscape/themes/xfgaps/xfwm4/bottom-active.png"
       inkscape:export-xdpi="90"
       inkscape:export-ydpi="90" />
    <path
       inkscape:connector-curvature="0"
       id="path4426"
       d="m 0,20 0,8 0,2 2,0 8,0 0,-2 -8,0 0,-8 -2,0 z"
       style="opacity:1;fill:#000000;fill-opacity:1;stroke:none;stroke-width:0.1;stroke-miterlimit:4;stroke-dasharray:none;stroke-opacity:1" />
    <path
       inkscape:connector-curvature="0"
       style="opacity:1;fill:#000000;fill-opacity:1;stroke:none;stroke-width:0.1;stroke-miterlimit:4;stroke-dasharray:none;stroke-opacity:1"
       d="m 40,20 0,8 0,2 -2,0 -8,0 0,-2 8,0 0,-8 2,0 z"
       id="path4428" />
    <rect
       inkscape:export-ydpi="90"
       inkscape:export-xdpi="90"
       inkscape:export-filename="/home/epsi/Dropbox/2018 - Inkscape/themes/xfgaps/xfwm4/bottom-active.png"
       style="display:inline;opacity:1;fill:#000000;fill-opacity:1;stroke:none;stroke-width:0.37795275;stroke-miterlimit:4;stroke-dasharray:none;stroke-opacity:1"
       id="rect4434"
       width="10"
       height="10"
       x="20"
       y="-10" />
    <rect
       y="-10"
       x="54"
       height="10"
       width="10"
       id="rect4436"
       style="display:inline;opacity:1;fill:#000000;fill-opacity:1;stroke:none;stroke-width:0.37795275;stroke-miterlimit:4;stroke-dasharray:none;stroke-opacity:1"
       inkscape:export-filename="/home/epsi/Dropbox/2018 - Inkscape/themes/xfgaps/xfwm4/bottom-active.png"
       inkscape:export-xdpi="90"
       inkscape:export-ydpi="90" />
    <path
       inkscape:connector-curvature="0"
       id="path4438"
       d="m 0,46 0,-8 0,-2 2,0 8,0 0,2 -8,0 0,8 -2,0 z"
       style="opacity:1;fill:#fff176;fill-opacity:1;stroke:none;stroke-width:0.1;stroke-miterlimit:4;stroke-dasharray:none;stroke-opacity:1" />
    <path
       inkscape:connector-curvature="0"
       style="opacity:1;fill:#fff176;fill-opacity:1;stroke:none;stroke-width:0.1;stroke-miterlimit:4;stroke-dasharray:none;stroke-opacity:1"
       d="m 40,46 0,-8 0,-2 -2,0 -8,0 0,2 8,0 0,8 2,0 z"
       id="path4440" />
    <path
       style="opacity:1;fill:#000000;fill-opacity:1;stroke:none;stroke-width:0.1;stroke-miterlimit:4;stroke-dasharray:none;stroke-opacity:1"
       d="m 0,-4 0,-8 0,-2 2,0 8,0 0,2 -8,0 0,8 -2,0 z"
       id="path4442"
       inkscape:connector-curvature="0" />
    <path
       id="path4444"
       d="m 40,-4 0,-8 0,-2 -2,0 -8,0 0,2 8,0 0,8 2,0 z"
       style="opacity:1;fill:#000000;fill-opacity:1;stroke:none;stroke-width:0.1;stroke-miterlimit:4;stroke-dasharray:none;stroke-opacity:1"
       inkscape:connector-curvature="0" />
  </g>
  <g
     inkscape:groupmode="layer"
     id="layer3"
     inkscape:label="Name"
     style="display:none"
     transform="translate(0,60)"
     sodipodi:insensitive="true">
    <text
       xml:space="preserve"
       style="font-style:normal;font-variant:normal;font-weight:bold;font-stretch:normal;font-size:10px;line-height:125%;font-family:sans-serif;-inkscape-font-specification:'sans-serif, Bold';text-align:center;letter-spacing:0px;word-spacing:0px;writing-mode:lr-tb;text-anchor:middle;fill:#ffffff;fill-opacity:1;stroke:#000000;stroke-width:0.1;stroke-linecap:butt;stroke-linejoin:miter;stroke-miterlimit:4;stroke-dasharray:none;stroke-opacity:1"
       x="15.375977"
       y="8.5937328"
       id="text4219"
       sodipodi:linespacing="125%"><tspan
         sodipodi:role="line"
         id="tspan4221"
         x="15.375977"
         y="8.5937328">1</tspan></text>
    <text
       sodipodi:linespacing="125%"
       id="text4223"
       y="8.5937328"
       x="25.115137"
       style="font-style:normal;font-variant:normal;font-weight:bold;font-stretch:normal;font-size:10px;line-height:125%;font-family:sans-serif;-inkscape-font-specification:'sans-serif, Bold';text-align:center;letter-spacing:0px;word-spacing:0px;writing-mode:lr-tb;text-anchor:middle;fill:#ffffff;fill-opacity:1;stroke:#000000;stroke-width:0.1;stroke-linecap:butt;stroke-linejoin:miter;stroke-miterlimit:4;stroke-dasharray:none;stroke-opacity:1"
       xml:space="preserve"><tspan
         sodipodi:role="line"
         id="tspan4227"
         x="25.115137"
         y="8.5937328">2</tspan></text>
    <text
       sodipodi:linespacing="125%"
       id="text4229"
       y="8.594017"
       x="49.375977"
       style="font-style:normal;font-variant:normal;font-weight:bold;font-stretch:normal;font-size:10px;line-height:125%;font-family:sans-serif;-inkscape-font-specification:'sans-serif, Bold';text-align:center;letter-spacing:0px;word-spacing:0px;writing-mode:lr-tb;text-anchor:middle;fill:#ffffff;fill-opacity:1;stroke:#000000;stroke-width:0.1;stroke-linecap:butt;stroke-linejoin:miter;stroke-miterlimit:4;stroke-dasharray:none;stroke-opacity:1"
       xml:space="preserve"><tspan
         sodipodi:role="line"
         id="tspan4237"
         x="49.375977"
         y="8.594017">3</tspan></text>
    <text
       xml:space="preserve"
       style="font-style:normal;font-variant:normal;font-weight:bold;font-stretch:normal;font-size:10px;line-height:125%;font-family:sans-serif;-inkscape-font-specification:'sans-serif, Bold';text-align:center;letter-spacing:0px;word-spacing:0px;writing-mode:lr-tb;text-anchor:middle;fill:#ffffff;fill-opacity:1;stroke:#000000;stroke-width:0.1;stroke-linecap:butt;stroke-linejoin:miter;stroke-miterlimit:4;stroke-dasharray:none;stroke-opacity:1"
       x="59.115135"
       y="8.594017"
       id="text4233"
       sodipodi:linespacing="125%"><tspan
         sodipodi:role="line"
         id="tspan4239"
         x="59.115135"
         y="8.594017">4</tspan></text>
    <text
       xml:space="preserve"
       style="font-style:normal;font-variant:normal;font-weight:bold;font-stretch:normal;font-size:10px;line-height:125%;font-family:sans-serif;-inkscape-font-specification:'sans-serif, Bold';text-align:center;letter-spacing:0px;word-spacing:0px;writing-mode:lr-tb;text-anchor:middle;fill:#ffffff;fill-opacity:1;stroke:#000000;stroke-width:0.1;stroke-linecap:butt;stroke-linejoin:miter;stroke-miterlimit:4;stroke-dasharray:none;stroke-opacity:1"
       x="69.375977"
       y="8.5940647"
       id="text4241"
       sodipodi:linespacing="125%"><tspan
         sodipodi:role="line"
         id="tspan4245"
         x="69.375977"
         y="8.5940647">5</tspan></text>
    <text
       sodipodi:linespacing="125%"
       id="text4247"
       y="33.970703"
       x="4.9184604"
       style="font-style:normal;font-variant:normal;font-weight:bold;font-stretch:normal;font-size:2.5px;line-height:125%;font-family:sans-serif;-inkscape-font-specification:'sans-serif, Bold';text-align:center;letter-spacing:0px;word-spacing:0px;writing-mode:lr-tb;text-anchor:middle;fill:#ffffff;fill-opacity:1;stroke:#000000;stroke-width:0.1;stroke-linecap:butt;stroke-linejoin:miter;stroke-miterlimit:4;stroke-dasharray:none;stroke-opacity:1"
       xml:space="preserve"><tspan
         sodipodi:role="line"
         id="tspan4251"
         x="4.9184604"
         y="33.970703">Bottom</tspan></text>
    <text
       xml:space="preserve"
       style="font-style:normal;font-variant:normal;font-weight:bold;font-stretch:normal;font-size:2.5px;line-height:125%;font-family:sans-serif;-inkscape-font-specification:'sans-serif, Bold';text-align:center;letter-spacing:0px;word-spacing:0px;writing-mode:lr-tb;text-anchor:middle;fill:#ffffff;fill-opacity:1;stroke:#000000;stroke-width:0.1;stroke-linecap:butt;stroke-linejoin:miter;stroke-miterlimit:4;stroke-dasharray:none;stroke-opacity:1"
       x="4.9184604"
       y="36.970703"
       id="text4253"
       sodipodi:linespacing="125%"><tspan
         sodipodi:role="line"
         id="tspan4257"
         x="4.9184604"
         y="36.970703">Left</tspan></text>
    <text
       xml:space="preserve"
       style="font-style:normal;font-variant:normal;font-weight:bold;font-stretch:normal;font-size:2.5px;line-height:125%;font-family:sans-serif;-inkscape-font-specification:'sans-serif, Bold';text-align:center;letter-spacing:0px;word-spacing:0px;writing-mode:lr-tb;text-anchor:middle;fill:#ffffff;fill-opacity:1;stroke:#000000;stroke-width:0.1;stroke-linecap:butt;stroke-linejoin:miter;stroke-miterlimit:4;stroke-dasharray:none;stroke-opacity:1"
       x="34.918739"
       y="33.970703"
       id="text4259"
       sodipodi:linespacing="125%"><tspan
         y="33.970703"
         x="34.918739"
         id="tspan4261"
         sodipodi:role="line">Bottom</tspan></text>
    <text
       sodipodi:linespacing="125%"
       id="text4263"
       y="36.970703"
       x="34.918739"
       style="font-style:normal;font-variant:normal;font-weight:bold;font-stretch:normal;font-size:2.5px;line-height:125%;font-family:sans-serif;-inkscape-font-specification:'sans-serif, Bold';text-align:center;letter-spacing:0px;word-spacing:0px;writing-mode:lr-tb;text-anchor:middle;fill:#ffffff;fill-opacity:1;stroke:#000000;stroke-width:0.1;stroke-linecap:butt;stroke-linejoin:miter;stroke-miterlimit:4;stroke-dasharray:none;stroke-opacity:1"
       xml:space="preserve"><tspan
         sodipodi:role="line"
         id="tspan4267"
         x="34.918739"
         y="36.970703">Right</tspan></text>
    <text
       xml:space="preserve"
       style="font-style:normal;font-variant:normal;font-weight:bold;font-stretch:normal;font-size:2.5px;line-height:125%;font-family:sans-serif;-inkscape-font-specification:'sans-serif, Bold';text-align:center;letter-spacing:0px;word-spacing:0px;writing-mode:lr-tb;text-anchor:middle;fill:#ffffff;fill-opacity:1;stroke:#000000;stroke-width:0.1;stroke-linecap:butt;stroke-linejoin:miter;stroke-miterlimit:4;stroke-dasharray:none;stroke-opacity:1"
       x="4.9184604"
       y="3.9708769"
       id="text4269"
       sodipodi:linespacing="125%"><tspan
         sodipodi:role="line"
         id="tspan4285"
         x="4.9184604"
         y="3.9708769">Top</tspan></text>
    <text
       sodipodi:linespacing="125%"
       id="text4273"
       y="6.9708772"
       x="4.9184604"
       style="font-style:normal;font-variant:normal;font-weight:bold;font-stretch:normal;font-size:2.5px;line-height:125%;font-family:sans-serif;-inkscape-font-specification:'sans-serif, Bold';text-align:center;letter-spacing:0px;word-spacing:0px;writing-mode:lr-tb;text-anchor:middle;fill:#ffffff;fill-opacity:1;stroke:#000000;stroke-width:0.1;stroke-linecap:butt;stroke-linejoin:miter;stroke-miterlimit:4;stroke-dasharray:none;stroke-opacity:1"
       xml:space="preserve"><tspan
         id="tspan4275"
         sodipodi:role="line"
         x="4.9184604"
         y="6.9708772">Left</tspan></text>
    <text
       sodipodi:linespacing="125%"
       id="text4277"
       y="3.9708769"
       x="34.918739"
       style="font-style:normal;font-variant:normal;font-weight:bold;font-stretch:normal;font-size:2.5px;line-height:125%;font-family:sans-serif;-inkscape-font-specification:'sans-serif, Bold';text-align:center;letter-spacing:0px;word-spacing:0px;writing-mode:lr-tb;text-anchor:middle;fill:#ffffff;fill-opacity:1;stroke:#000000;stroke-width:0.1;stroke-linecap:butt;stroke-linejoin:miter;stroke-miterlimit:4;stroke-dasharray:none;stroke-opacity:1"
       xml:space="preserve"><tspan
         sodipodi:role="line"
         id="tspan4287"
         x="34.918739"
         y="3.9708769">Top</tspan></text>
    <text
       xml:space="preserve"
       style="font-style:normal;font-variant:normal;font-weight:bold;font-stretch:normal;font-size:2.5px;line-height:125%;font-family:sans-serif;-inkscape-font-specification:'sans-serif, Bold';text-align:center;letter-spacing:0px;word-spacing:0px;writing-mode:lr-tb;text-anchor:middle;fill:#ffffff;fill-opacity:1;stroke:#000000;stroke-width:0.1;stroke-linecap:butt;stroke-linejoin:miter;stroke-miterlimit:4;stroke-dasharray:none;stroke-opacity:1"
       x="34.918739"
       y="6.9708772"
       id="text4281"
       sodipodi:linespacing="125%"><tspan
         id="tspan4283"
         sodipodi:role="line"
         x="34.918739"
         y="6.9708772">Right</tspan></text>
    <text
       sodipodi:linespacing="125%"
       id="text4289"
       y="20.895369"
       x="4.9184604"
       style="font-style:normal;font-variant:normal;font-weight:bold;font-stretch:normal;font-size:2.5px;line-height:125%;font-family:sans-serif;-inkscape-font-specification:'sans-serif, Bold';text-align:center;letter-spacing:0px;word-spacing:0px;writing-mode:lr-tb;text-anchor:middle;fill:#ffffff;fill-opacity:1;stroke:#000000;stroke-width:0.1;stroke-linecap:butt;stroke-linejoin:miter;stroke-miterlimit:4;stroke-dasharray:none;stroke-opacity:1"
       xml:space="preserve"><tspan
         id="tspan4291"
         sodipodi:role="line"
         x="4.9184604"
         y="20.895369">Left</tspan></text>
    <text
       xml:space="preserve"
       style="font-style:normal;font-variant:normal;font-weight:bold;font-stretch:normal;font-size:2.5px;line-height:125%;font-family:sans-serif;-inkscape-font-specification:'sans-serif, Bold';text-align:center;letter-spacing:0px;word-spacing:0px;writing-mode:lr-tb;text-anchor:middle;fill:#ffffff;fill-opacity:1;stroke:#000000;stroke-width:0.1;stroke-linecap:butt;stroke-linejoin:miter;stroke-miterlimit:4;stroke-dasharray:none;stroke-opacity:1"
       x="34.918854"
       y="20.895369"
       id="text4297"
       sodipodi:linespacing="125%"><tspan
         sodipodi:role="line"
         id="tspan4301"
         x="34.918854"
         y="20.895369">Right</tspan></text>
    <text
       xml:space="preserve"
       style="font-style:normal;font-variant:normal;font-weight:bold;font-stretch:normal;font-size:2.5px;line-height:125%;font-family:sans-serif;-inkscape-font-specification:'sans-serif, Bold';text-align:center;letter-spacing:0px;word-spacing:0px;writing-mode:lr-tb;text-anchor:middle;fill:#ffffff;fill-opacity:1;stroke:#000000;stroke-width:0.1;stroke-linecap:butt;stroke-linejoin:miter;stroke-miterlimit:4;stroke-dasharray:none;stroke-opacity:1"
       x="19.992676"
       y="35.880108"
       id="text4303"
       sodipodi:linespacing="125%"><tspan
         y="35.880108"
         x="19.992676"
         id="tspan4305"
         sodipodi:role="line">Bottom</tspan></text>
    <text
       sodipodi:linespacing="125%"
       id="text4352"
       y="-41.40625"
       x="15.375977"
       style="font-style:normal;font-variant:normal;font-weight:bold;font-stretch:normal;font-size:10px;line-height:125%;font-family:sans-serif;-inkscape-font-specification:'sans-serif, Bold';text-align:center;letter-spacing:0px;word-spacing:0px;writing-mode:lr-tb;text-anchor:middle;fill:#ffffff;fill-opacity:1;stroke:#000000;stroke-width:0.1;stroke-linecap:butt;stroke-linejoin:miter;stroke-miterlimit:4;stroke-dasharray:none;stroke-opacity:1"
       xml:space="preserve"><tspan
         y="-41.40625"
         x="15.375977"
         id="tspan4354"
         sodipodi:role="line">1</tspan></text>
    <text
       xml:space="preserve"
       style="font-style:normal;font-variant:normal;font-weight:bold;font-stretch:normal;font-size:10px;line-height:125%;font-family:sans-serif;-inkscape-font-specification:'sans-serif, Bold';text-align:center;letter-spacing:0px;word-spacing:0px;writing-mode:lr-tb;text-anchor:middle;fill:#ffffff;fill-opacity:1;stroke:#000000;stroke-width:0.1;stroke-linecap:butt;stroke-linejoin:miter;stroke-miterlimit:4;stroke-dasharray:none;stroke-opacity:1"
       x="25.115137"
       y="-41.40625"
       id="text4356"
       sodipodi:linespacing="125%"><tspan
         y="-41.40625"
         x="25.115137"
         id="tspan4358"
         sodipodi:role="line">2</tspan></text>
    <text
       xml:space="preserve"
       style="font-style:normal;font-variant:normal;font-weight:bold;font-stretch:normal;font-size:10px;line-height:125%;font-family:sans-serif;-inkscape-font-specification:'sans-serif, Bold';text-align:center;letter-spacing:0px;word-spacing:0px;writing-mode:lr-tb;text-anchor:middle;fill:#ffffff;fill-opacity:1;stroke:#000000;stroke-width:0.1;stroke-linecap:butt;stroke-linejoin:miter;stroke-miterlimit:4;stroke-dasharray:none;stroke-opacity:1"
       x="49.375977"
       y="-41.405983"
       id="text4360"
       sodipodi:linespacing="125%"><tspan
         y="-41.405983"
         x="49.375977"
         id="tspan4362"
         sodipodi:role="line">3</tspan></text>
    <text
       sodipodi:linespacing="125%"
       id="text4364"
       y="-41.405983"
       x="59.115135"
       style="font-style:normal;font-variant:normal;font-weight:bold;font-stretch:normal;font-size:10px;line-height:125%;font-family:sans-serif;-inkscape-font-specification:'sans-serif, Bold';text-align:center;letter-spacing:0px;word-spacing:0px;writing-mode:lr-tb;text-anchor:middle;fill:#ffffff;fill-opacity:1;stroke:#000000;stroke-width:0.1;stroke-linecap:butt;stroke-linejoin:miter;stroke-miterlimit:4;stroke-dasharray:none;stroke-opacity:1"
       xml:space="preserve"><tspan
         y="-41.405983"
         x="59.115135"
         id="tspan4366"
         sodipodi:role="line">4</tspan></text>
    <text
       sodipodi:linespacing="125%"
       id="text4368"
       y="-41.405937"
       x="69.375977"
       style="font-style:normal;font-variant:normal;font-weight:bold;font-stretch:normal;font-size:10px;line-height:125%;font-family:sans-serif;-inkscape-font-specification:'sans-serif, Bold';text-align:center;letter-spacing:0px;word-spacing:0px;writing-mode:lr-tb;text-anchor:middle;fill:#ffffff;fill-opacity:1;stroke:#000000;stroke-width:0.1;stroke-linecap:butt;stroke-linejoin:miter;stroke-miterlimit:4;stroke-dasharray:none;stroke-opacity:1"
       xml:space="preserve"><tspan
         y="-41.405937"
         x="69.375977"
         id="tspan4370"
         sodipodi:role="line">5</tspan></text>
    <text
       xml:space="preserve"
       style="font-style:normal;font-variant:normal;font-weight:bold;font-stretch:normal;font-size:2.5px;line-height:125%;font-family:sans-serif;-inkscape-font-specification:'sans-serif, Bold';text-align:center;letter-spacing:0px;word-spacing:0px;writing-mode:lr-tb;text-anchor:middle;fill:#ffffff;fill-opacity:1;stroke:#000000;stroke-width:0.1;stroke-linecap:butt;stroke-linejoin:miter;stroke-miterlimit:4;stroke-dasharray:none;stroke-opacity:1"
       x="4.9184604"
       y="-16.02928"
       id="text4372"
       sodipodi:linespacing="125%"><tspan
         y="-16.02928"
         x="4.9184604"
         id="tspan4374"
         sodipodi:role="line">Bottom</tspan></text>
    <text
       sodipodi:linespacing="125%"
       id="text4376"
       y="-13.029278"
       x="4.9184604"
       style="font-style:normal;font-variant:normal;font-weight:bold;font-stretch:normal;font-size:2.5px;line-height:125%;font-family:sans-serif;-inkscape-font-specification:'sans-serif, Bold';text-align:center;letter-spacing:0px;word-spacing:0px;writing-mode:lr-tb;text-anchor:middle;fill:#ffffff;fill-opacity:1;stroke:#000000;stroke-width:0.1;stroke-linecap:butt;stroke-linejoin:miter;stroke-miterlimit:4;stroke-dasharray:none;stroke-opacity:1"
       xml:space="preserve"><tspan
         y="-13.029278"
         x="4.9184604"
         id="tspan4378"
         sodipodi:role="line">Left</tspan></text>
    <text
       sodipodi:linespacing="125%"
       id="text4380"
       y="-16.02928"
       x="34.918739"
       style="font-style:normal;font-variant:normal;font-weight:bold;font-stretch:normal;font-size:2.5px;line-height:125%;font-family:sans-serif;-inkscape-font-specification:'sans-serif, Bold';text-align:center;letter-spacing:0px;word-spacing:0px;writing-mode:lr-tb;text-anchor:middle;fill:#ffffff;fill-opacity:1;stroke:#000000;stroke-width:0.1;stroke-linecap:butt;stroke-linejoin:miter;stroke-miterlimit:4;stroke-dasharray:none;stroke-opacity:1"
       xml:space="preserve"><tspan
         sodipodi:role="line"
         id="tspan4382"
         x="34.918739"
         y="-16.02928">Bottom</tspan></text>
    <text
       xml:space="preserve"
       style="font-style:normal;font-variant:normal;font-weight:bold;font-stretch:normal;font-size:2.5px;line-height:125%;font-family:sans-serif;-inkscape-font-specification:'sans-serif, Bold';text-align:center;letter-spacing:0px;word-spacing:0px;writing-mode:lr-tb;text-anchor:middle;fill:#ffffff;fill-opacity:1;stroke:#000000;stroke-width:0.1;stroke-linecap:butt;stroke-linejoin:miter;stroke-miterlimit:4;stroke-dasharray:none;stroke-opacity:1"
       x="34.918739"
       y="-13.029278"
       id="text4384"
       sodipodi:linespacing="125%"><tspan
         y="-13.029278"
         x="34.918739"
         id="tspan4386"
         sodipodi:role="line">Right</tspan></text>
    <text
       sodipodi:linespacing="125%"
       id="text4388"
       y="-46.029106"
       x="4.9184604"
       style="font-style:normal;font-variant:normal;font-weight:bold;font-stretch:normal;font-size:2.5px;line-height:125%;font-family:sans-serif;-inkscape-font-specification:'sans-serif, Bold';text-align:center;letter-spacing:0px;word-spacing:0px;writing-mode:lr-tb;text-anchor:middle;fill:#ffffff;fill-opacity:1;stroke:#000000;stroke-width:0.1;stroke-linecap:butt;stroke-linejoin:miter;stroke-miterlimit:4;stroke-dasharray:none;stroke-opacity:1"
       xml:space="preserve"><tspan
         y="-46.029106"
         x="4.9184604"
         id="tspan4390"
         sodipodi:role="line">Top</tspan></text>
    <text
       xml:space="preserve"
       style="font-style:normal;font-variant:normal;font-weight:bold;font-stretch:normal;font-size:2.5px;line-height:125%;font-family:sans-serif;-inkscape-font-specification:'sans-serif, Bold';text-align:center;letter-spacing:0px;word-spacing:0px;writing-mode:lr-tb;text-anchor:middle;fill:#ffffff;fill-opacity:1;stroke:#000000;stroke-width:0.1;stroke-linecap:butt;stroke-linejoin:miter;stroke-miterlimit:4;stroke-dasharray:none;stroke-opacity:1"
       x="4.9184604"
       y="-43.029106"
       id="text4392"
       sodipodi:linespacing="125%"><tspan
         y="-43.029106"
         x="4.9184604"
         sodipodi:role="line"
         id="tspan4394">Left</tspan></text>
    <text
       xml:space="preserve"
       style="font-style:normal;font-variant:normal;font-weight:bold;font-stretch:normal;font-size:2.5px;line-height:125%;font-family:sans-serif;-inkscape-font-specification:'sans-serif, Bold';text-align:center;letter-spacing:0px;word-spacing:0px;writing-mode:lr-tb;text-anchor:middle;fill:#ffffff;fill-opacity:1;stroke:#000000;stroke-width:0.1;stroke-linecap:butt;stroke-linejoin:miter;stroke-miterlimit:4;stroke-dasharray:none;stroke-opacity:1"
       x="34.918739"
       y="-46.029106"
       id="text4396"
       sodipodi:linespacing="125%"><tspan
         y="-46.029106"
         x="34.918739"
         id="tspan4398"
         sodipodi:role="line">Top</tspan></text>
    <text
       sodipodi:linespacing="125%"
       id="text4400"
       y="-43.029106"
       x="34.918739"
       style="font-style:normal;font-variant:normal;font-weight:bold;font-stretch:normal;font-size:2.5px;line-height:125%;font-family:sans-serif;-inkscape-font-specification:'sans-serif, Bold';text-align:center;letter-spacing:0px;word-spacing:0px;writing-mode:lr-tb;text-anchor:middle;fill:#ffffff;fill-opacity:1;stroke:#000000;stroke-width:0.1;stroke-linecap:butt;stroke-linejoin:miter;stroke-miterlimit:4;stroke-dasharray:none;stroke-opacity:1"
       xml:space="preserve"><tspan
         y="-43.029106"
         x="34.918739"
         sodipodi:role="line"
         id="tspan4402">Right</tspan></text>
    <text
       xml:space="preserve"
       style="font-style:normal;font-variant:normal;font-weight:bold;font-stretch:normal;font-size:2.5px;line-height:125%;font-family:sans-serif;-inkscape-font-specification:'sans-serif, Bold';text-align:center;letter-spacing:0px;word-spacing:0px;writing-mode:lr-tb;text-anchor:middle;fill:#ffffff;fill-opacity:1;stroke:#000000;stroke-width:0.1;stroke-linecap:butt;stroke-linejoin:miter;stroke-miterlimit:4;stroke-dasharray:none;stroke-opacity:1"
       x="4.9184604"
       y="-29.104614"
       id="text4404"
       sodipodi:linespacing="125%"><tspan
         y="-29.104614"
         x="4.9184604"
         sodipodi:role="line"
         id="tspan4406">Left</tspan></text>
    <text
       sodipodi:linespacing="125%"
       id="text4408"
       y="-29.104614"
       x="34.918854"
       style="font-style:normal;font-variant:normal;font-weight:bold;font-stretch:normal;font-size:2.5px;line-height:125%;font-family:sans-serif;-inkscape-font-specification:'sans-serif, Bold';text-align:center;letter-spacing:0px;word-spacing:0px;writing-mode:lr-tb;text-anchor:middle;fill:#ffffff;fill-opacity:1;stroke:#000000;stroke-width:0.1;stroke-linecap:butt;stroke-linejoin:miter;stroke-miterlimit:4;stroke-dasharray:none;stroke-opacity:1"
       xml:space="preserve"><tspan
         y="-29.104614"
         x="34.918854"
         id="tspan4410"
         sodipodi:role="line">Right</tspan></text>
    <text
       sodipodi:linespacing="125%"
       id="text4412"
       y="-14.119875"
       x="19.992676"
       style="font-style:normal;font-variant:normal;font-weight:bold;font-stretch:normal;font-size:2.5px;line-height:125%;font-family:sans-serif;-inkscape-font-specification:'sans-serif, Bold';text-align:center;letter-spacing:0px;word-spacing:0px;writing-mode:lr-tb;text-anchor:middle;fill:#ffffff;fill-opacity:1;stroke:#000000;stroke-width:0.1;stroke-linecap:butt;stroke-linejoin:miter;stroke-miterlimit:4;stroke-dasharray:none;stroke-opacity:1"
       xml:space="preserve"><tspan
         sodipodi:role="line"
         id="tspan4414"
         x="19.992676"
         y="-14.119875">Bottom</tspan></text>
    <text
       sodipodi:linespacing="125%"
       id="text4416"
       y="-29.104631"
       x="59.916992"
       style="font-style:normal;font-variant:normal;font-weight:bold;font-stretch:normal;font-size:7.5px;line-height:125%;font-family:sans-serif;-inkscape-font-specification:'sans-serif, Bold';text-align:center;letter-spacing:0px;word-spacing:0px;writing-mode:lr-tb;text-anchor:middle;fill:#000000;fill-opacity:1;stroke:none;stroke-width:1px;stroke-linecap:butt;stroke-linejoin:miter;stroke-opacity:1"
       xml:space="preserve"><tspan
         sodipodi:role="line"
         id="tspan4424"
         x="59.916992"
         y="-29.104631">Inactive</tspan></text>
    <text
       xml:space="preserve"
       style="font-style:normal;font-variant:normal;font-weight:bold;font-stretch:normal;font-size:7.5px;line-height:125%;font-family:sans-serif;-inkscape-font-specification:'sans-serif, Bold';text-align:center;letter-spacing:0px;word-spacing:0px;writing-mode:lr-tb;text-anchor:middle;fill:#000000;fill-opacity:1;stroke:none;stroke-width:1px;stroke-linecap:butt;stroke-linejoin:miter;stroke-opacity:1"
       x="59.916992"
       y="20.895386"
       id="text4428"
       sodipodi:linespacing="125%"><tspan
         sodipodi:role="line"
         id="tspan4432"
         x="59.916992"
         y="20.895386">Active</tspan></text>
    <text
       xml:space="preserve"
       style="font-style:normal;font-variant:normal;font-weight:bold;font-stretch:normal;font-size:15px;line-height:125%;font-family:sans-serif;-inkscape-font-specification:'sans-serif, Bold';text-align:center;letter-spacing:0px;word-spacing:0px;writing-mode:lr-tb;text-anchor:middle;display:inline;opacity:1;fill:#000000;fill-opacity:1;stroke:none;stroke-width:1px;stroke-linecap:butt;stroke-linejoin:miter;stroke-opacity:1"
       x="90.017883"
       y="30.332031"
       id="text4178"
       sodipodi:linespacing="125%"><tspan
         sodipodi:role="line"
         id="tspan4180"
         x="90.017883"
         y="30.332031">S</tspan></text>
    <text
       sodipodi:linespacing="125%"
       id="text4235"
       y="30.332031"
       x="130.01059"
       style="font-style:normal;font-variant:normal;font-weight:bold;font-stretch:normal;font-size:15px;line-height:125%;font-family:sans-serif;-inkscape-font-specification:'sans-serif, Bold';text-align:center;letter-spacing:0px;word-spacing:0px;writing-mode:lr-tb;text-anchor:middle;display:inline;opacity:1;fill:#000000;fill-opacity:1;stroke:none;stroke-width:1px;stroke-linecap:butt;stroke-linejoin:miter;stroke-opacity:1"
       xml:space="preserve"><tspan
         sodipodi:role="line"
         id="tspan4255"
         x="130.01059"
         y="30.332031">H</tspan></text>
    <text
       xml:space="preserve"
       style="font-style:normal;font-variant:normal;font-weight:bold;font-stretch:normal;font-size:15px;line-height:125%;font-family:sans-serif;-inkscape-font-specification:'sans-serif, Bold';text-align:center;letter-spacing:0px;word-spacing:0px;writing-mode:lr-tb;text-anchor:middle;display:inline;opacity:1;fill:#000000;fill-opacity:1;stroke:none;stroke-width:1px;stroke-linecap:butt;stroke-linejoin:miter;stroke-opacity:1"
       x="150.01401"
       y="30.332031"
       id="text4243"
       sodipodi:linespacing="125%"><tspan
         sodipodi:role="line"
         id="tspan4257-7"
         x="150.01401"
         y="30.332031">M</tspan></text>
    <text
       sodipodi:linespacing="125%"
       id="text4251"
       y="30.332031"
       x="189.92235"
       style="font-style:normal;font-variant:normal;font-weight:bold;font-stretch:normal;font-size:15px;line-height:125%;font-family:sans-serif;-inkscape-font-specification:'sans-serif, Bold';text-align:center;letter-spacing:0px;word-spacing:0px;writing-mode:lr-tb;text-anchor:middle;display:inline;opacity:1;fill:#000000;fill-opacity:1;stroke:none;stroke-width:1px;stroke-linecap:butt;stroke-linejoin:miter;stroke-opacity:1"
       xml:space="preserve"><tspan
         sodipodi:role="line"
         id="tspan4259"
         x="189.92235"
         y="30.332031">C</tspan></text>
    <text
       sodipodi:linespacing="125%"
       id="text5446"
       y="30.332031"
       x="110.01788"
       style="font-style:normal;font-variant:normal;font-weight:bold;font-stretch:normal;font-size:15px;line-height:125%;font-family:sans-serif;-inkscape-font-specification:'sans-serif, Bold';text-align:center;letter-spacing:0px;word-spacing:0px;writing-mode:lr-tb;text-anchor:middle;display:inline;opacity:1;fill:#000000;fill-opacity:1;stroke:none;stroke-width:1px;stroke-linecap:butt;stroke-linejoin:miter;stroke-opacity:1"
       xml:space="preserve"><tspan
         y="30.332031"
         x="110.01788"
         id="tspan5448"
         sodipodi:role="line">S</tspan></text>
    <text
       xml:space="preserve"
       style="font-style:normal;font-variant:normal;font-weight:normal;font-stretch:normal;font-size:12.5px;line-height:125%;font-family:sans-serif;-inkscape-font-specification:'sans-serif, Normal';text-align:start;letter-spacing:0px;word-spacing:0px;writing-mode:lr-tb;text-anchor:start;display:inline;opacity:1;fill:#000000;fill-opacity:1;stroke:none;stroke-width:1px;stroke-linecap:butt;stroke-linejoin:miter;stroke-opacity:1"
       x="114.14807"
       y="34.040932"
       id="text5450"
       sodipodi:linespacing="125%"><tspan
         sodipodi:role="line"
         id="tspan5456"
         x="114.14807"
         y="34.040932">t</tspan></text>
    <text
       sodipodi:linespacing="125%"
       id="text5614"
       y="34.040932"
       x="175.64807"
       style="font-style:normal;font-variant:normal;font-weight:normal;font-stretch:normal;font-size:12.5px;line-height:125%;font-family:sans-serif;-inkscape-font-specification:'sans-serif, Normal';text-align:start;letter-spacing:0px;word-spacing:0px;writing-mode:lr-tb;text-anchor:start;display:inline;opacity:1;fill:#000000;fill-opacity:1;stroke:none;stroke-width:1px;stroke-linecap:butt;stroke-linejoin:miter;stroke-opacity:1"
       xml:space="preserve"><tspan
         y="34.040932"
         x="175.64807"
         id="tspan5616"
         sodipodi:role="line">t</tspan></text>
    <text
       sodipodi:linespacing="125%"
       id="text5618"
       y="30.332031"
       x="170.01401"
       style="font-style:normal;font-variant:normal;font-weight:bold;font-stretch:normal;font-size:15px;line-height:125%;font-family:sans-serif;-inkscape-font-specification:'sans-serif, Bold';text-align:center;letter-spacing:0px;word-spacing:0px;writing-mode:lr-tb;text-anchor:middle;display:inline;opacity:1;fill:#000000;fill-opacity:1;stroke:none;stroke-width:1px;stroke-linecap:butt;stroke-linejoin:miter;stroke-opacity:1"
       xml:space="preserve"><tspan
         y="30.332031"
         x="170.01401"
         id="tspan5620"
         sodipodi:role="line">M</tspan></text>
    <text
       xml:space="preserve"
       style="font-style:normal;font-variant:normal;font-weight:bold;font-stretch:normal;font-size:15px;line-height:125%;font-family:sans-serif;-inkscape-font-specification:'sans-serif, Bold';text-align:center;letter-spacing:0px;word-spacing:0px;writing-mode:lr-tb;text-anchor:middle;display:inline;opacity:1;fill:#000000;fill-opacity:1;stroke:none;stroke-width:1px;stroke-linecap:butt;stroke-linejoin:miter;stroke-opacity:1"
       x="229.92267"
       y="30.332031"
       id="text5783"
       sodipodi:linespacing="125%"><tspan
         sodipodi:role="line"
         id="tspan4639"
         x="229.92267"
         y="30.332031">T</tspan></text>
    <text
       xml:space="preserve"
       style="font-style:normal;font-variant:normal;font-weight:normal;font-stretch:normal;font-size:12.5px;line-height:125%;font-family:sans-serif;-inkscape-font-specification:'sans-serif, Normal';text-align:start;letter-spacing:0px;word-spacing:0px;writing-mode:lr-tb;text-anchor:start;display:inline;opacity:1;fill:#000000;fill-opacity:1;stroke:none;stroke-width:1px;stroke-linecap:butt;stroke-linejoin:miter;stroke-opacity:1"
       x="234.14799"
       y="34.040932"
       id="text5795"
       sodipodi:linespacing="125%"><tspan
         sodipodi:role="line"
         id="tspan5797"
         x="234.14799"
         y="34.040932">t</tspan></text>
    <text
       xml:space="preserve"
       style="font-style:normal;font-variant:normal;font-weight:bold;font-stretch:normal;font-size:15px;line-height:125%;font-family:sans-serif;-inkscape-font-specification:'sans-serif, Bold';text-align:center;letter-spacing:0px;word-spacing:0px;writing-mode:lr-tb;text-anchor:middle;display:inline;opacity:1;fill:#000000;fill-opacity:1;stroke:none;stroke-width:1px;stroke-linecap:butt;stroke-linejoin:miter;stroke-opacity:1"
       x="210.01366"
       y="30.332031"
       id="text5799"
       sodipodi:linespacing="125%"><tspan
         sodipodi:role="line"
         id="tspan4637"
         x="210.01366"
         y="30.332031">T</tspan></text>
    <text
       sodipodi:linespacing="125%"
       id="text6132"
       y="30.332031"
       x="250.01358"
       style="font-style:normal;font-variant:normal;font-weight:bold;font-stretch:normal;font-size:15px;line-height:125%;font-family:sans-serif;-inkscape-font-specification:'sans-serif, Bold';text-align:center;letter-spacing:0px;word-spacing:0px;writing-mode:lr-tb;text-anchor:middle;display:inline;opacity:1;fill:#000000;fill-opacity:1;stroke:none;stroke-width:1px;stroke-linecap:butt;stroke-linejoin:miter;stroke-opacity:1"
       xml:space="preserve"><tspan
         sodipodi:role="line"
         id="tspan4641"
         x="250.01358"
         y="30.332031">O</tspan></text>
    <text
       xml:space="preserve"
       style="font-style:normal;font-variant:normal;font-weight:bold;font-stretch:normal;font-size:5px;line-height:125%;font-family:sans-serif;-inkscape-font-specification:'sans-serif, Bold';text-align:center;letter-spacing:0px;word-spacing:0px;writing-mode:lr-tb;text-anchor:middle;display:inline;opacity:1;fill:#000000;fill-opacity:1;stroke:none;stroke-width:1px;stroke-linecap:butt;stroke-linejoin:miter;stroke-opacity:1"
       x="273.98291"
       y="6.9511719"
       id="text6142"
       sodipodi:linespacing="125%"><tspan
         sodipodi:role="line"
         id="tspan6146"
         x="273.98291"
         y="6.9511719">active</tspan></text>
    <text
       sodipodi:linespacing="125%"
       id="text6260"
       y="-21.048828"
       x="273.98291"
       style="font-style:normal;font-variant:normal;font-weight:bold;font-stretch:normal;font-size:5px;line-height:125%;font-family:sans-serif;-inkscape-font-specification:'sans-serif, Bold';text-align:center;letter-spacing:0px;word-spacing:0px;writing-mode:lr-tb;text-anchor:middle;display:inline;opacity:1;fill:#000000;fill-opacity:1;stroke:none;stroke-width:1px;stroke-linecap:butt;stroke-linejoin:miter;stroke-opacity:1"
       xml:space="preserve"><tspan
         sodipodi:role="line"
         id="tspan6270"
         x="273.98291"
         y="-21.048828">prelight</tspan></text>
    <text
       xml:space="preserve"
       style="font-style:normal;font-variant:normal;font-weight:bold;font-stretch:normal;font-size:5px;line-height:125%;font-family:sans-serif;-inkscape-font-specification:'sans-serif, Bold';text-align:center;letter-spacing:0px;word-spacing:0px;writing-mode:lr-tb;text-anchor:middle;display:inline;opacity:1;fill:#000000;fill-opacity:1;stroke:none;stroke-width:1px;stroke-linecap:butt;stroke-linejoin:miter;stroke-opacity:1"
       x="273.98291"
       y="-7.0488281"
       id="text6264"
       sodipodi:linespacing="125%"><tspan
         sodipodi:role="line"
         id="tspan6268"
         x="273.98291"
         y="-7.0488281">inactive</tspan></text>
    <text
       xml:space="preserve"
       style="font-style:normal;font-variant:normal;font-weight:bold;font-stretch:normal;font-size:5px;line-height:125%;font-family:sans-serif;-inkscape-font-specification:'sans-serif, Bold';text-align:center;letter-spacing:0px;word-spacing:0px;writing-mode:lr-tb;text-anchor:middle;display:inline;opacity:1;fill:#000000;fill-opacity:1;stroke:none;stroke-width:1px;stroke-linecap:butt;stroke-linejoin:miter;stroke-opacity:1"
       x="273.98291"
       y="-35.049042"
       id="text6298"
       sodipodi:linespacing="125%"><tspan
         sodipodi:role="line"
         id="tspan6302"
         x="273.98291"
         y="-35.049042">pressed</tspan></text>
  </g>
</svg>
