/* XPM */
static char *close_inactive[] = {
/* columns rows colors chars-per-pixel */
"24 24 4 1 ",
"  c gray62",
". c #FFCDD2",
"X c #EEEEEE",
"o c white",
/* pixels */
"XXXXXXXXXXXXXXXXXXXXXXXX",
"XXXXXXXXXXXXXXXXXXXXXXXX",
"XXXXXXXXXXXXXXXXXXXXXXXX",
"XXXXXXXXXXXXXXXXXXXXXXXX",
"XXXXooooooooooooooooXXXX",
"XXXXoooooooooooooooo XXX",
"XXXXoo............oo XXX",
"XXXXoo............oo XXX",
"XXXXoo............oo XXX",
"XXXXoo............oo XXX",
"XXXXoo............oo XXX",
"XXXXoo............oo XXX",
"XXXXoo............oo XXX",
"XXXXoo............oo XXX",
"XXXXoo............oo XXX",
"XXXXoo............oo XXX",
"XXXXoo............oo XXX",
"XXXXoo............oo XXX",
"XXXXoooooooooooooooo XXX",
"XXXXoooooooooooooooo XXX",
"XXXXX                XXX",
"XXXXXXXXXXXXXXXXXXXXXXXX",
"XXXXXXXXXXXXXXXXXXXXXXXX",
"XXXXXXXXXXXXXXXXXXXXXXXX"
};
