/* XPM */
static char *iconify_pressed[] = {
/* columns rows colors chars-per-pixel */
"24 24 122 2 ",
"   c #6F6357",
".  c #716456",
"X  c #626262",
"o  c gray40",
"O  c #9E6C39",
"+  c #9F6D39",
"@  c #BF7223",
"#  c #B97127",
"$  c #B7732C",
"%  c #BE7429",
"&  c #A16D38",
"*  c #A06D39",
"=  c #E65100",
"-  c #DE780F",
";  c #DF780F",
":  c #CA741C",
">  c #CB741C",
",  c #ED7A05",
"<  c #EE7B05",
"1  c #F37C01",
"2  c #F37C02",
"3  c #F57C00",
"4  c #F47C01",
"5  c #F47D02",
"6  c #F57D02",
"7  c #F57E02",
"8  c #F57E03",
"9  c #F07D07",
"0  c #F17E08",
"q  c #8D6944",
"w  c #8E6944",
"e  c #F3800A",
"r  c #F4810B",
"t  c #F5820B",
"y  c #F7860D",
"u  c #F7870D",
"i  c #F7860E",
"p  c #F1891F",
"a  c #F08A20",
"s  c #F79027",
"d  c #FB9C2B",
"f  c #FB9D2B",
"g  c #FB9D2C",
"h  c #FB9E2C",
"j  c #FB9E2D",
"k  c #FB9F2D",
"l  c #FB9F2E",
"z  c #EB943B",
"x  c #EF983F",
"c  c #FCA738",
"v  c #FCA839",
"b  c #8E8173",
"n  c #B08B65",
"m  c #DA9044",
"M  c #C18C57",
"N  c #F79F46",
"B  c #FDAC40",
"V  c #FDAD40",
"C  c #F1A14E",
"Z  c #FEB449",
"A  c #FFB449",
"S  c #FFB44A",
"D  c #FFB64C",
"F  c #FFB74C",
"G  c #FFB74D",
"H  c #EFA457",
"J  c #FFB951",
"K  c #FFB952",
"L  c #C19E7B",
"P  c #D8A36E",
"I  c #C6A17B",
"U  c #DDAA75",
"Y  c #F6AD63",
"T  c #FFBF60",
"R  c #838383",
"E  c #848484",
"W  c #9E9183",
"Q  c gray58",
"!  c #9D9D9D",
"~  c gray62",
"^  c #A0968C",
"/  c #ACACAC",
"(  c #AEAEAE",
")  c #AFAFAF",
"_  c #BDB0A3",
"`  c #B6B6B6",
"'  c gray72",
"]  c #EAB580",
"[  c #F2BD87",
"{  c #C2B4A6",
"}  c #C2B6A9",
"|  c #E9C49E",
" . c #F9C590",
".. c #F9C691",
"X. c #FFD598",
"o. c #FFD699",
"O. c #FFD69A",
"+. c #EEC8A1",
"@. c #F4CEA7",
"#. c #D7D7D7",
"$. c #E5D7C8",
"%. c #EADDCF",
"&. c #FFEFD7",
"*. c #F8E9D9",
"=. c #FFEFD8",
"-. c #FFEFD9",
";. c #F8EBDE",
":. c #FBEDDE",
">. c #FBEDDF",
",. c #FFF0D9",
"<. c #FFF1DD",
"1. c #FFF2DE",
"2. c gray90",
"3. c gray91",
"4. c gray92",
"5. c #EFEFEF",
"6. c #F3F3F3",
"7. c #FFFBF5",
"8. c #FFFCF7",
"9. c #F8F8F8",
"0. c gray99",
"q. c white",
/* pixels */
"0.0.0.0.0.0.0.:. .N s t t s N ..>.0.0.0.0.0.0.0.",
"9.9.9.9.9.;.Y 8 3 3 3 3 3 3 3 3 4 C *.9.9.9.9.9.",
"6.6.6.6.@.r 3 3 3 3 3 3 3 3 3 3 3 3 0 | 6.6.6.6.",
"5.5.5.[ 6 3 3 3 3 3 3 3 3 3 3 3 3 3 3 4 P 5.5.5.",
"4.4.+.6 3 3 3 3 i g V S S V f u 3 3 3 3 4 I 4.4.",
"3.%.r 3 3 3 7 k F G G G G G G D j 6 3 3 3 < } 3.",
"2.H 3 3 3 7 v G K O.-.8.8.-.o.K G v 6 3 3 3 % #.",
"$.8 3 3 3 l G T 1.q.q.q.q.q.q.<.T G h 3 3 3 1 W ",
"] 3 3 3 i F K 1.q.q.q.q.q.q.q.q.<.K D y 3 3 3 * ",
"x 3 3 3 g G O.q.q.q.q.q.q.q.q.q.q.X.G f 3 3 3 : ",
"p 3 3 3 V G ,.q.q.q.q.q.q.q.q.q.q.=.G B 3 3 3 ; ",
"e 3 3 3 A G 8.q.q.q.q.q.q.q.q.q.q.8.G Z 3 3 3 < ",
"e 3 3 3 Z G 8.q.q.q.q.q.q.q.q.q.q.7.G Z 3 3 3 , ",
"a 3 3 3 V G ,.= = = = = = = = = = =.G B 3 3 3 - ",
"z 3 3 3 f G o.= = = = = = = = = = X.G d 3 3 3 : ",
"U 3 3 3 u D K <.q.q.q.q.q.q.q.q.<.J D y 3 3 3 O ",
"{ 5 3 3 3 j G T <.q.q.q.q.q.q.<.T G g 3 3 3 2 . ",
"' m 3 3 3 6 v G J X.=.8.8.&.X.J G c 7 3 3 3 # X ",
"` _ 9 3 3 3 6 h D G G G G G G D g 7 3 3 3 ,   R ",
"` ` L 1 3 3 3 3 y f B A A B d y 3 3 3 3 4 w o ) ",
"` ` ` M 4 3 3 3 3 3 3 3 3 3 3 3 3 3 3 4 & X ! ` ",
"` ` ` ` n < 3 3 3 3 3 3 3 3 3 3 3 3 , q X Q ` ` ",
"` ` ` ` ` ^ $ 2 3 3 3 3 3 3 3 3 4 @   o ~ ` ` ` ",
"` ` ` ` ` ` / b * > - < < - : + . X E ( ` ` ` ` "
};
