/* XPM */
static char *stuck_active[] = {
/* columns rows colors chars-per-pixel */
"24 24 75 1 ",
"  c #626262",
". c #646464",
"X c #656565",
"o c #676767",
"O c #686868",
"+ c #6F6F6F",
"@ c #747474",
"# c #767676",
"$ c gray47",
"% c #7B7B7B",
"& c #868686",
"* c gray53",
"= c gray57",
"- c gray60",
"; c #9A9A9A",
": c #A7A7A7",
"> c gray66",
", c #A9A9A9",
"< c #ACACAC",
"1 c #B4B4B4",
"2 c #B6B6B6",
"3 c gray72",
"4 c #B9B9B9",
"5 c gray73",
"6 c #BBBBBB",
"7 c #81C784",
"8 c #86C989",
"9 c #87CA8A",
"0 c #88CA8B",
"q c #98D19B",
"w c #99D29B",
"e c #9CD39E",
"r c #9CD39F",
"t c #9DD39F",
"y c #9DD49F",
"u c #C6C6C6",
"i c gray79",
"p c #CACACA",
"a c #CBCBCB",
"s c #D0D0D0",
"d c gray83",
"f c #D5D5D5",
"g c #D7D7D7",
"h c gray86",
"j c gainsboro",
"k c gray87",
"l c #DFDFDF",
"z c #C9E7CA",
"x c #CAE7CB",
"c c gray88",
"v c #E1E1E1",
"b c gray89",
"n c #E4E4E4",
"m c gray90",
"M c #E6E6E6",
"N c gray91",
"B c #E9E9E9",
"V c gray92",
"C c #ECECEC",
"Z c #EEEEEE",
"A c #EFEFEF",
"S c #F1F1F1",
"D c #F3F3F3",
"F c #F4F4F4",
"G c #F6F6F6",
"H c gray97",
"J c #F2F9F2",
"K c #F8F8F8",
"L c gray98",
"P c gray99",
"I c #FCFDFC",
"U c #FDFDFD",
"Y c #FCFEFC",
"T c #FEFEFE",
"R c white",
/* pixels */
"PPPPPPPPPPPPPPPPPPPPPPPP",
"KKKKKKKKKKKKKKKKKKKKKKKK",
"DDDDDDDDDDDDDDDDDDDDDDDD",
"AAAAAAAAAAAAAAAAAAAAAAAA",
"VVVVVVVVAGPTTPGZVVVVVVVV",
"NNNNNNBGRRRRRRRTCBNNNNNN",
"mmmmmMKRIzr88rzIRnbmmmmm",
"bbbbbFRJq777777wJRpcbbbb",
"vvvvMRIq77777777wIU,vvvv",
"llllSRz7777777777xR5illl",
"llllLRe7777777777tRn-lll",
"kkkkUR977777777779RH#kkk",
"hhhhUR977777777770RGohhh",
"ggggKRe7777777777tRnOggg",
"ssssVRz7777777777xR3@sss",
"aaaadTIw77777777wYU%=aaa",
"66666jRJw777777wJR6 <666",
"333335lRYxt99yxYRf.&3333",
"2222222uURRRRRRU6.$12222",
"22222221;4nKKn3% &122222",
"222222222:*+XX+*>2222222",
"222222222222222222222222",
"222222222222222222222222",
"222222222222222222222222"
};
