/* XPM */
static char *stuck_pressed[] = {
/* columns rows colors chars-per-pixel */
"24 24 121 2 ",
"   c #1B5E20",
".  c #306D35",
"X  c #316E36",
"o  c #326E37",
"O  c #336F38",
"+  c #477D49",
"@  c #487C4B",
"#  c #4B7F4D",
"$  c #4C7D4E",
"%  c #556E56",
"&  c #556F56",
"*  c #5C655D",
"=  c #5C665D",
"-  c #507352",
";  c #507452",
":  c #507552",
">  c #626262",
",  c gray40",
"<  c #3A8B3E",
"1  c #388D3C",
"2  c #388E3C",
"3  c #398E3D",
"4  c #3A8C3E",
"5  c #3A8F3E",
"6  c #3A903E",
"7  c #3E8742",
"8  c #3C8E40",
"9  c #3D8F41",
"0  c #3F9143",
"q  c #448147",
"w  c #409244",
"e  c #419344",
"r  c #449749",
"t  c #449848",
"y  c #459848",
"u  c #4F9953",
"i  c #509953",
"p  c #569F5A",
"a  c #669B69",
"s  c #79837A",
"d  c #709572",
"f  c #769077",
"g  c #63A166",
"h  c #60AD64",
"j  c #61AE65",
"k  c #62AF65",
"l  c #62AF66",
"z  c #63AF67",
"x  c #67A56A",
"c  c #63B066",
"v  c #6EAC71",
"b  c #73AD76",
"n  c #7AAF7C",
"m  c #6EB871",
"M  c #6EB872",
"N  c #75BD77",
"B  c #74BD78",
"V  c #75BD78",
"C  c #7DC480",
"Z  c #7DC481",
"A  c #7EC581",
"S  c #838383",
"D  c #89938A",
"F  c #939393",
"G  c #919891",
"H  c #9D9D9D",
"J  c #85A887",
"K  c #8BA48C",
"L  c #8CA68D",
"P  c #85A988",
"I  c #86AB88",
"U  c #86AA89",
"Y  c #85B887",
"T  c #8DB18E",
"R  c #98BD9A",
"E  c #ACACAC",
"W  c #AFAFAF",
"Q  c #A9B2A9",
"!  c #ACB6AD",
"~  c #AFB7AF",
"^  c #B6B6B6",
"/  c gray72",
"(  c #80C683",
")  c #80C783",
"_  c #81C784",
"`  c #84C887",
"'  c #84C987",
"]  c #8ECD91",
"[  c #9FC5A1",
"{  c #A8CDAA",
"}  c #A9CDAA",
"|  c #AFC9B0",
" . c #B3CEB4",
".. c #B9D4BA",
"X. c #B6DFB8",
"o. c #B7DFB9",
"O. c #CFD9CF",
"+. c #D7D7D7",
"@. c #D5DFD6",
"#. c gray90",
"$. c #E0EBE1",
"%. c #E4EDE4",
"&. c #E5EFE5",
"*. c #E5EFE6",
"=. c gray91",
"-. c gray92",
";. c #EFEFEF",
":. c #E3F2E4",
">. c #E3F3E4",
",. c #E4F3E4",
"<. c #E4F3E5",
"1. c #E7F4E8",
"2. c #E8F5E8",
"3. c #F3F3F3",
"4. c #F8F8F8",
"5. c #FAFBFA",
"6. c #F8FCF8",
"7. c #F9FCF9",
"8. c #FAFDFA",
"9. c gray99",
"0. c white",
/* pixels */
"9.9.9.9.9.9.9.&.{ v p e e p v } *.9.9.9.9.9.9.9.",
"4.4.4.4.4.%.Y 5 2 2 2 2 2 2 2 2 3 b $.4.4.4.4.4.",
"3.3.3.3...w 2 2 2 2 2 2 2 2 2 2 2 2 9 | 3.3.3.3.",
";.;.;.[ 5 2 2 2 2 2 2 2 2 2 2 2 2 2 2 3 I ;.;.;.",
"-.-. .5 2 2 2 2 y j B Z Z B j r 2 2 2 2 3 L -.-.",
"=.@.w 2 2 2 5 z ( _ _ _ _ _ _ ) l 6 2 2 2 4 ~ =.",
"#.n 2 2 2 5 m _ ' o.,.8.8.,.o.' _ M 6 2 2 2 # +.",
"O.5 2 2 2 c _ ] 2.0.0.0.0.0.0.1.] _ k 2 2 2 1 D ",
"R 2 2 2 y ( ' 2.0.0.0.0.0.0.0.0.1.' ) y 2 2 2 : ",
"x 2 2 2 j _ o.0.0.5.J X o P 5.0.0.X._ j 2 2 2 q ",
"u 2 2 2 V _ <.0.0.P         P 0.0.>._ N 2 2 2 7 ",
"0 2 2 2 A _ 7.0.0.X         . 0.0.7._ C 2 2 2 4 ",
"0 2 2 2 C _ 7.0.0.o         O 0.0.6._ C 2 2 2 < ",
"i 2 2 2 V _ <.0.0.P         U 0.0.>._ N 2 2 2 7 ",
"g 2 2 2 j _ o.0.0.5.P o o P 5.0.0.X._ h 2 2 2 q ",
"T 2 2 2 r ) ' 1.0.0.0.0.0.0.0.0.1.` ) t 2 2 2 - ",
"! 3 2 2 2 l _ ] 1.0.0.0.0.0.0.1.] _ j 2 2 2 3 = ",
"/ a 2 2 2 6 m _ ` X.>.7.7.:.X.` _ m 5 2 2 2 @ > ",
"^ Q 8 2 2 2 6 k ) _ _ _ _ _ _ ) j 5 2 2 2 < * S ",
"^ ^ K 1 2 2 2 2 y j N A A N h t 2 2 2 2 3 & , W ",
"^ ^ ^ d 3 2 2 2 2 2 2 2 2 2 2 2 2 2 2 3 : > H ^ ",
"^ ^ ^ ^ f 4 2 2 2 2 2 2 2 2 2 2 2 2 < % > F ^ ^ ",
"^ ^ ^ ^ ^ G $ 3 2 2 2 2 2 2 2 2 3 + * , H ^ ^ ^ ",
"^ ^ ^ ^ ^ ^ E s : q 7 4 4 7 q ; = > S W ^ ^ ^ ^ "
};
