/* XPM */
static char *title_active[] = {
/* columns rows colors chars-per-pixel */
"32 24 18 1 ",
"  c #B6B6B6",
". c gray72",
"X c #BBBBBB",
"o c #CBCBCB",
"O c #D0D0D0",
"+ c #D7D7D7",
"@ c gray86",
"# c gray87",
"$ c #DFDFDF",
"% c #E1E1E1",
"& c gray89",
"* c gray90",
"= c gray91",
"- c gray92",
"; c #EFEFEF",
": c #F3F3F3",
"> c #F8F8F8",
", c gray99",
/* pixels */
",,,,,,,,,,,,,,,,,,,,,,,,,,,,,,,,",
">>>>>>>>>>>>>>>>>>>>>>>>>>>>>>>>",
"::::::::::::::::::::::::::::::::",
";;;;;;;;;;;;;;;;;;;;;;;;;;;;;;;;",
"--------------------------------",
"================================",
"********************************",
"&&&&&&&&&&&&&&&&&&&&&&&&&&&&&&&&",
"%%%%%%%%%%%%%%%%%%%%%%%%%%%%%%%%",
"$$$$$$$$$$$$$$$$$$$$$$$$$$$$$$$$",
"$$$$$$$$$$$$$$$$$$$$$$$$$$$$$$$$",
"################################",
"@@@@@@@@@@@@@@@@@@@@@@@@@@@@@@@@",
"++++++++++++++++++++++++++++++++",
"OOOOOOOOOOOOOOOOOOOOOOOOOOOOOOOO",
"oooooooooooooooooooooooooooooooo",
"XXXXXXXXXXXXXXXXXXXXXXXXXXXXXXXX",
"................................",
"                                ",
"                                ",
"                                ",
"                                ",
"                                ",
"                                "
};
