#define bullet_width 10
#define bullet_height 10
static char bullet_bits[] = {
  0x00, 0x00, 0x00, 0x00, 0x00, 0x00, 0x20, 0x00, 0x70, 0x00, 0xF8, 0x00, 
  0x70, 0x00, 0x20, 0x00, 0x00, 0x00, 0x00, 0x00, };
