#define desk_disabled_width 10
#define desk_disabled_height 10
static char desk_disabled_bits[] = {
  0x00, 0x00, 0x00, 0x00, 0x84, 0x00, 0x00, 0x00, 0x00, 0x00, 0x00, 0x00, 
  0x00, 0x00, 0x84, 0x00, 0x00, 0x00, 0x00, 0x00, };
