#define shade_toggled_hover_width 10
#define shade_toggled_hover_height 10
static char shade_toggled_hover_bits[] = {
  0x00, 0x00, 0x00, 0x00, 0x88, 0x00, 0x48, 0x00, 0x28, 0x00, 0x18, 0x00, 
  0xF8, 0x00, 0x00, 0x00, 0x00, 0x00, 0x00, 0x00, };
