#define shade_toggled_pressed_width 10
#define shade_toggled_pressed_height 10
static char shade_toggled_pressed_bits[] = {
  0x00, 0x00, 0x00, 0x00, 0x90, 0x00, 0x50, 0x00, 0x30, 0x00, 0xF0, 0x00, 
  0x00, 0x00, 0x00, 0x00, 0x00, 0x00, 0x00, 0x00, };
