#define shade_hover_width 10
#define shade_hover_height 10
static char shade_hover_bits[] = {
  0x00, 0x00, 0x00, 0x00, 0x00, 0x00, 0x7C, 0x00, 0x60, 0x00, 0x50, 0x00, 
  0x48, 0x00, 0x44, 0x00, 0x00, 0x00, 0x00, 0x00, };
