#define shade_pressed_width 10
#define shade_pressed_height 10
static char shade_pressed_bits[] = {
  0x00, 0x00, 0x00, 0x00, 0x00, 0x00, 0x00, 0x00, 0x3C, 0x00, 0x30, 0x00, 
  0x28, 0x00, 0x24, 0x00, 0x00, 0x00, 0x00, 0x00, };
