#define shade_disabled_width 10
#define shade_disabled_height 10
static char shade_disabled_bits[] = {
  0x00, 0x00, 0x00, 0x00, 0xFC, 0x00, 0x80, 0x00, 0x80, 0x00, 0x80, 0x00, 
  0x80, 0x00, 0x84, 0x00, 0x00, 0x00, 0x00, 0x00, };
